i2s/obj_dir/out.vcd
$version Generated by VerilatedVcd $end
$date Mon Nov 25 14:11:05 2019
 $end
$timescale   1ns $end

 $scope module TOP $end
  $var wire 16 + data_left [15:0] $end
  $var wire 16 , data_right [15:0] $end
  $var wire  1 ( sck $end
  $var wire  1 * sd $end
  $var wire  1 ) ws $end
  $scope module i2s_master $end
   $var wire  5 % counter [4:0] $end
   $var wire 16 + data_left [15:0] $end
   $var wire 16 , data_right [15:0] $end
   $var wire  1 ( sck $end
   $var wire  1 * sd $end
   $var wire 16 ' shift [0:15] $end
   $var wire 32 - width [31:0] $end
   $var wire  1 ) ws $end
   $var wire  1 # wsd $end
   $var wire  1 & wsdd $end
   $var wire  1 $ wsp $end
  $upscope $end
 $upscope $end
$enddefinitions $end


#1
0#
0$
b00000 %
0&
b0000000000000000 '
1(
0)
0*
b0000000000000000 +
b0000000000000000 ,
b00000000000000000000000000010000 -
#2
b00001 %
0(
#2
1*
#3
b0100000000000000 '
1(
#4
b00010 %
0(
#5
b0110000000000000 '
1(
#6
b00011 %
0(
#7
b0111000000000000 '
1(
#8
b00100 %
0(
#9
b0111100000000000 '
1(
#10
b00101 %
0(
#11
b0111110000000000 '
1(
#12
b00110 %
0(
0*
#13
1(
#14
b00111 %
0(
#15
1(
#16
b01000 %
0(
1*
#17
b0111110010000000 '
1(
#18
b01001 %
0(
#19
b0111110011000000 '
1(
#20
b01010 %
0(
0*
#21
1(
#22
b01011 %
0(
1*
#23
b0111110011010000 '
1(
#24
b01100 %
0(
#25
b0111110011011000 '
1(
#26
b01101 %
0(
0*
#27
1(
#28
b01110 %
0(
1*
#29
b0111110011011010 '
1(
#30
b01111 %
0(
0*
#31
1(
#32
b10000 %
0(
1*
#33
1(
#35
1#
1$
1)
#36
b00000 %
0(
#37
0$
1&
b1000000000000000 '
1(
b0111110011011010 +
#38
b00001 %
0(
#39
b1100000000000000 '
1(
#40
b00010 %
0(
#41
b1110000000000000 '
1(
#42
b00011 %
0(
#43
b1111000000000000 '
1(
#44
b00100 %
0(
#45
b1111100000000000 '
1(
#46
b00101 %
0(
#47
1(
0*
#48
b00110 %
0(
#49
1(
#50
b00111 %
0(
#51
b1111100100000000 '
1(
1*
#52
b01000 %
0(
#53
1(
0*
#54
b01001 %
0(
#55
1(
#56
b01010 %
0(
#57
1(
#58
b01011 %
0(
#59
b1111100100010000 '
1(
1*
#60
b01100 %
0(
#61
b1111100100011000 '
1(
#62
b01101 %
0(
#63
b1111100100011100 '
1(
#64
b01110 %
0(
#65
1(
0*
#66
b01111 %
0(
#67
b1111100100011101 '
1(
1*
#68
b10000 %
0(
#69
1(
#70
0(
#71
0#
1$
1(
0)
#72
b00000 %
0(
#72
#73
0$
0&
b1000000000000000 '
1(
b1111100100011101 ,
#74
b00001 %
0(
#75
b1100000000000000 '
1(
#76
b00010 %
0(
#77
b1110000000000000 '
1(
#78
b00011 %
0(
#79
b1111000000000000 '
1(
#80
b00100 %
0(
#81
b1111100000000000 '
1(
#82
b00101 %
0(
0*
#83
1(
#84
b00110 %
0(
#85
1(
#86
b00111 %
0(
1*
#87
b1111100100000000 '
1(
#88
b01000 %
0(
#89
b1111100110000000 '
1(
#90
b01001 %
0(
0*
#91
1(
#92
b01010 %
0(
1*
#93
b1111100110100000 '
1(
#94
b01011 %
0(
#95
b1111100110110000 '
1(
#96
b01100 %
0(
0*
#97
1(
#98
b01101 %
0(
1*
#99
b1111100110110100 '
1(
#100
b01110 %
0(
0*
#101
1(
#102
b01111 %
0(
1*
#103
b1111100110110101 '
1(
#105
1#
1$
b10000 %
1)
#106
b00000 %
0(
#107
0$
1&
b1000000000000000 '
1(
b1111100110110101 +
#108
b00001 %
0(
#109
b1100000000000000 '
1(
#110
b00010 %
0(
#111
b1110000000000000 '
1(
#112
b00011 %
0(
#113
b1111000000000000 '
1(
#114
b00100 %
0(
#115
b1111100000000000 '
1(
#116
b00101 %
0(
#117
1(
0*
#118
b00110 %
0(
#119
1(
#120
b00111 %
0(
#121
b1111100100000000 '
1(
1*
#122
b01000 %
0(
#123
1(
0*
#124
b01001 %
0(
#125
1(
#126
b01010 %
0(
#127
1(
#128
b01011 %
0(
#129
b1111100100010000 '
1(
1*
#130
b01100 %
0(
#131
b1111100100011000 '
1(
#132
b01101 %
0(
#133
b1111100100011100 '
1(
#134
b01110 %
0(
#135
b1111100100011110 '
1(
#136
b01111 %
0(
#137
1(
0*
#138
b10000 %
0(
#139
1(
#140
0(
#141
0#
1$
1(
0)
#142
b00000 %
0(
#142
1*
#143
0$
0&
b1000000000000000 '
1(
b1111100100011110 ,
#144
b00001 %
0(
#145
b1100000000000000 '
1(
#146
b00010 %
0(
#147
b1110000000000000 '
1(
#148
b00011 %
0(
#149
b1111000000000000 '
1(
#150
b00100 %
0(
#151
b1111100000000000 '
1(
#152
b00101 %
0(
0*
#153
1(
#154
b00110 %
0(
#155
1(
#156
b00111 %
0(
1*
#157
b1111100100000000 '
1(
#158
b01000 %
0(
#159
b1111100110000000 '
1(
#160
b01001 %
0(
0*
#161
1(
#162
b01010 %
0(
1*
#163
b1111100110100000 '
1(
#164
b01011 %
0(
#165
b1111100110110000 '
1(
#166
b01100 %
0(
0*
#167
1(
#168
b01101 %
0(
1*
#169
b1111100110110100 '
1(
#170
b01110 %
0(
0*
#171
1(
#172
b01111 %
0(
1*
#173
b1111100110110101 '
1(
#175
1#
1$
b10000 %
1)
#176
b00000 %
0(
#177
0$
1&
b1000000000000000 '
1(
#178
b00001 %
0(
#179
b1100000000000000 '
1(
#180
b00010 %
0(
#181
b1110000000000000 '
1(
#182
b00011 %
0(
#183
b1111000000000000 '
1(
#184
b00100 %
0(
#185
b1111100000000000 '
1(
#186
b00101 %
0(
#187
1(
0*
#188
b00110 %
0(
#189
1(
#190
b00111 %
0(
#191
b1111100100000000 '
1(
1*
#192
b01000 %
0(
#193
1(
0*
#194
b01001 %
0(
#195
1(
#196
b01010 %
0(
#197
1(
#198
b01011 %
0(
#199
b1111100100010000 '
1(
1*
#200
b01100 %
0(
#201
b1111100100011000 '
1(
#202
b01101 %
0(
#203
b1111100100011100 '
1(
#204
b01110 %
0(
#205
1(
0*
#206
b01111 %
0(
#207
1(
#208
b10000 %
0(
#209
1(
#210
0(
#211
0#
1$
1(
0)
#212
b00000 %
0(
#212
1*
#213
0$
0&
b1000000000000000 '
1(
b1111100100011100 ,
#214
b00001 %
0(
#215
b1100000000000000 '
1(
#216
b00010 %
0(
#217
b1110000000000000 '
1(
#218
b00011 %
0(
#219
b1111000000000000 '
1(
#220
b00100 %
0(
#221
b1111100000000000 '
1(
#222
b00101 %
0(
0*
#223
1(
#224
b00110 %
0(
#225
1(
#226
b00111 %
0(
1*
#227
b1111100100000000 '
1(
#228
b01000 %
0(
#229
b1111100110000000 '
1(
#230
b01001 %
0(
0*
#231
1(
#232
b01010 %
0(
1*
#233
b1111100110100000 '
1(
#234
b01011 %
0(
#235
b1111100110110000 '
1(
#236
b01100 %
0(
0*
#237
1(
#238
b01101 %
0(
1*
#239
b1111100110110100 '
1(
#240
b01110 %
0(
0*
#241
1(
#242
b01111 %
0(
1*
#243
b1111100110110101 '
1(
#245
1#
1$
b10000 %
1)
#246
b00000 %
0(
#247
0$
1&
b1000000000000000 '
1(
#248
b00001 %
0(
#249
b1100000000000000 '
1(
#250
b00010 %
0(
#251
b1110000000000000 '
1(
#252
b00011 %
0(
#253
b1111000000000000 '
1(
#254
b00100 %
0(
#255
b1111100000000000 '
1(
#256
b00101 %
0(
#257
1(
0*
#258
b00110 %
0(
#259
1(
#260
b00111 %
0(
#261
b1111100100000000 '
1(
1*
#262
b01000 %
0(
#263
1(
0*
#264
b01001 %
0(
#265
1(
#266
b01010 %
0(
#267
1(
#268
b01011 %
0(
#269
b1111100100010000 '
1(
1*
#270
b01100 %
0(
#271
b1111100100011000 '
1(
#272
b01101 %
0(
#273
b1111100100011100 '
1(
#274
b01110 %
0(
#275
1(
0*
#276
b01111 %
0(
#277
1(
#278
b10000 %
0(
#279
1(
#280
0(
#281
0#
1$
1(
0)
#282
b00000 %
0(
#282
1*
#283
0$
0&
b1000000000000000 '
1(
#284
b00001 %
0(
#285
b1100000000000000 '
1(
#286
b00010 %
0(
#287
b1110000000000000 '
1(
#288
b00011 %
0(
#289
b1111000000000000 '
1(
#290
b00100 %
0(
#291
b1111100000000000 '
1(
#292
b00101 %
0(
0*
#293
1(
#294
b00110 %
0(
#295
1(
#296
b00111 %
0(
1*
#297
b1111100100000000 '
1(
#298
b01000 %
0(
#299
b1111100110000000 '
1(
#300
b01001 %
0(
0*
#301
1(
#302
b01010 %
0(
1*
#303
b1111100110100000 '
1(
#304
b01011 %
0(
#305
b1111100110110000 '
1(
#306
b01100 %
0(
0*
#307
1(
#308
b01101 %
0(
1*
#309
b1111100110110100 '
1(
#310
b01110 %
0(
0*
#311
1(
#312
b01111 %
0(
1*
#313
b1111100110110101 '
1(
#315
1#
1$
b10000 %
1)
#316
b00000 %
0(
#317
0$
1&
b1000000000000000 '
1(
#318
b00001 %
0(
#319
b1100000000000000 '
1(
#320
b00010 %
0(
#321
b1110000000000000 '
1(
#322
b00011 %
0(
#323
b1111000000000000 '
1(
#324
b00100 %
0(
#325
b1111100000000000 '
1(
#326
b00101 %
0(
#327
1(
0*
#328
b00110 %
0(
#329
1(
#330
b00111 %
0(
#331
b1111100100000000 '
1(
1*
#332
b01000 %
0(
#333
1(
0*
#334
b01001 %
0(
#335
1(
#336
b01010 %
0(
#337
1(
#338
b01011 %
0(
#339
b1111100100010000 '
1(
1*
#340
b01100 %
0(
#341
b1111100100011000 '
1(
#342
b01101 %
0(
#343
b1111100100011100 '
1(
#344
b01110 %
0(
#345
1(
0*
#346
b01111 %
0(
#347
b1111100100011101 '
1(
1*
#348
b10000 %
0(
#349
1(
#350
0(
#351
0#
1$
1(
0)
#352
b00000 %
0(
#352
#353
0$
0&
b1000000000000000 '
1(
b1111100100011101 ,
#354
b00001 %
0(
#355
b1100000000000000 '
1(
#356
b00010 %
0(
#357
b1110000000000000 '
1(
#358
b00011 %
0(
#359
b1111000000000000 '
1(
#360
b00100 %
0(
#361
b1111100000000000 '
1(
#362
b00101 %
0(
0*
#363
1(
#364
b00110 %
0(
#365
1(
#366
b00111 %
0(
1*
#367
b1111100100000000 '
1(
#368
b01000 %
0(
#369
b1111100110000000 '
1(
#370
b01001 %
0(
0*
#371
1(
#372
b01010 %
0(
1*
#373
b1111100110100000 '
1(
#374
b01011 %
0(
#375
b1111100110110000 '
1(
#376
b01100 %
0(
0*
#377
1(
#378
b01101 %
0(
1*
#379
b1111100110110100 '
1(
#380
b01110 %
0(
#381
b1111100110110110 '
1(
#382
b01111 %
0(
#383
b1111100110110111 '
1(
#385
1#
1$
b10000 %
1)
#386
b00000 %
0(
#387
0$
1&
b1000000000000000 '
1(
b1111100110110111 +
#388
b00001 %
0(
#389
b1100000000000000 '
1(
#390
b00010 %
0(
#391
b1110000000000000 '
1(
#392
b00011 %
0(
#393
b1111000000000000 '
1(
#394
b00100 %
0(
#395
b1111100000000000 '
1(
#396
b00101 %
0(
#397
1(
0*
#398
b00110 %
0(
#399
1(
#400
b00111 %
0(
#401
b1111100100000000 '
1(
1*
#402
b01000 %
0(
#403
1(
0*
#404
b01001 %
0(
#405
1(
#406
b01010 %
0(
#407
1(
#408
b01011 %
0(
#409
b1111100100010000 '
1(
1*
#410
b01100 %
0(
#411
b1111100100011000 '
1(
#412
b01101 %
0(
#413
b1111100100011100 '
1(
#414
b01110 %
0(
#415
1(
0*
#416
b01111 %
0(
#417
1(
#418
b10000 %
0(
#419
1(
#420
0(
#421
0#
1$
1(
0)
#422
b00000 %
0(
#422
1*
#423
0$
0&
b1000000000000000 '
1(
b1111100100011100 ,
#424
b00001 %
0(
#425
b1100000000000000 '
1(
#426
b00010 %
0(
#427
b1110000000000000 '
1(
#428
b00011 %
0(
#429
b1111000000000000 '
1(
#430
b00100 %
0(
#431
b1111100000000000 '
1(
#432
b00101 %
0(
0*
#433
1(
#434
b00110 %
0(
#435
1(
#436
b00111 %
0(
1*
#437
b1111100100000000 '
1(
#438
b01000 %
0(
#439
b1111100110000000 '
1(
#440
b01001 %
0(
0*
#441
1(
#442
b01010 %
0(
1*
#443
b1111100110100000 '
1(
#444
b01011 %
0(
#445
b1111100110110000 '
1(
#446
b01100 %
0(
0*
#447
1(
#448
b01101 %
0(
1*
#449
b1111100110110100 '
1(
#450
b01110 %
0(
#451
b1111100110110110 '
1(
#452
b01111 %
0(
#453
b1111100110110111 '
1(
#455
1#
1$
b10000 %
1)
#456
b00000 %
0(
#457
0$
1&
b1000000000000000 '
1(
#458
b00001 %
0(
#459
b1100000000000000 '
1(
#460
b00010 %
0(
#461
b1110000000000000 '
1(
#462
b00011 %
0(
#463
b1111000000000000 '
1(
#464
b00100 %
0(
#465
b1111100000000000 '
1(
#466
b00101 %
0(
#467
1(
0*
#468
b00110 %
0(
#469
1(
#470
b00111 %
0(
#471
b1111100100000000 '
1(
1*
#472
b01000 %
0(
#473
1(
0*
#474
b01001 %
0(
#475
1(
#476
b01010 %
0(
#477
1(
#478
b01011 %
0(
#479
b1111100100010000 '
1(
1*
#480
b01100 %
0(
#481
b1111100100011000 '
1(
#482
b01101 %
0(
#483
b1111100100011100 '
1(
#484
b01110 %
0(
#485
1(
0*
#486
b01111 %
0(
#487
b1111100100011101 '
1(
1*
#488
b10000 %
0(
#489
1(
#490
0(
#491
0#
1$
1(
0)
#492
b00000 %
0(
#492
#493
0$
0&
b1000000000000000 '
1(
b1111100100011101 ,
#494
b00001 %
0(
#495
b1100000000000000 '
1(
#496
b00010 %
0(
#497
b1110000000000000 '
1(
#498
b00011 %
0(
#499
b1111000000000000 '
1(
#500
b00100 %
0(
#501
b1111100000000000 '
1(
#502
b00101 %
0(
0*
#503
1(
#504
b00110 %
0(
#505
1(
#506
b00111 %
0(
1*
#507
b1111100100000000 '
1(
#508
b01000 %
0(
#509
b1111100110000000 '
1(
#510
b01001 %
0(
0*
#511
1(
#512
b01010 %
0(
1*
#513
b1111100110100000 '
1(
#514
b01011 %
0(
#515
b1111100110110000 '
1(
#516
b01100 %
0(
0*
#517
1(
#518
b01101 %
0(
1*
#519
b1111100110110100 '
1(
#520
b01110 %
0(
#521
b1111100110110110 '
1(
#522
b01111 %
0(
0*
#523
1(
#525
1#
1$
b10000 %
1)
#526
b00000 %
0(
#527
0$
1&
b1000000000000000 '
1(
1*
b1111100110110110 +
#528
b00001 %
0(
#529
b1100000000000000 '
1(
#530
b00010 %
0(
#531
b1110000000000000 '
1(
#532
b00011 %
0(
#533
b1111000000000000 '
1(
#534
b00100 %
0(
#535
b1111100000000000 '
1(
#536
b00101 %
0(
#537
1(
0*
#538
b00110 %
0(
#539
1(
#540
b00111 %
0(
#541
b1111100100000000 '
1(
1*
#542
b01000 %
0(
#543
1(
0*
#544
b01001 %
0(
#545
1(
#546
b01010 %
0(
#547
1(
#548
b01011 %
0(
#549
b1111100100010000 '
1(
1*
#550
b01100 %
0(
#551
b1111100100011000 '
1(
#552
b01101 %
0(
#553
b1111100100011100 '
1(
#554
b01110 %
0(
#555
b1111100100011110 '
1(
#556
b01111 %
0(
#557
1(
0*
#558
b10000 %
0(
#559
1(
#560
0(
#561
0#
1$
1(
0)
#562
b00000 %
0(
#562
1*
#563
0$
0&
b1000000000000000 '
1(
b1111100100011110 ,
#564
b00001 %
0(
#565
b1100000000000000 '
1(
#566
b00010 %
0(
#567
b1110000000000000 '
1(
#568
b00011 %
0(
#569
b1111000000000000 '
1(
#570
b00100 %
0(
#571
b1111100000000000 '
1(
#572
b00101 %
0(
0*
#573
1(
#574
b00110 %
0(
#575
1(
#576
b00111 %
0(
1*
#577
b1111100100000000 '
1(
#578
b01000 %
0(
#579
b1111100110000000 '
1(
#580
b01001 %
0(
0*
#581
1(
#582
b01010 %
0(
1*
#583
b1111100110100000 '
1(
#584
b01011 %
0(
#585
b1111100110110000 '
1(
#586
b01100 %
0(
0*
#587
1(
#588
b01101 %
0(
1*
#589
b1111100110110100 '
1(
#590
b01110 %
0(
#591
b1111100110110110 '
1(
#592
b01111 %
0(
0*
#593
1(
#595
1#
1$
b10000 %
1)
#596
b00000 %
0(
#597
0$
1&
b1000000000000000 '
1(
1*
#598
b00001 %
0(
#599
b1100000000000000 '
1(
#600
b00010 %
0(
#601
b1110000000000000 '
1(
#602
b00011 %
0(
#603
b1111000000000000 '
1(
#604
b00100 %
0(
#605
b1111100000000000 '
1(
#606
b00101 %
0(
#607
1(
0*
#608
b00110 %
0(
#609
1(
#610
b00111 %
0(
#611
b1111100100000000 '
1(
1*
#612
b01000 %
0(
#613
1(
0*
#614
b01001 %
0(
#615
1(
#616
b01010 %
0(
#617
1(
#618
b01011 %
0(
#619
b1111100100010000 '
1(
1*
#620
b01100 %
0(
#621
b1111100100011000 '
1(
#622
b01101 %
0(
#623
b1111100100011100 '
1(
#624
b01110 %
0(
#625
1(
0*
#626
b01111 %
0(
#627
b1111100100011101 '
1(
1*
#628
b10000 %
0(
#629
1(
#630
0(
#631
0#
1$
1(
0)
#632
b00000 %
0(
#632
#633
0$
0&
b1000000000000000 '
1(
b1111100100011101 ,
#634
b00001 %
0(
#635
b1100000000000000 '
1(
#636
b00010 %
0(
#637
b1110000000000000 '
1(
#638
b00011 %
0(
#639
b1111000000000000 '
1(
#640
b00100 %
0(
#641
b1111100000000000 '
1(
#642
b00101 %
0(
0*
#643
1(
#644
b00110 %
0(
#645
1(
#646
b00111 %
0(
1*
#647
b1111100100000000 '
1(
#648
b01000 %
0(
#649
b1111100110000000 '
1(
#650
b01001 %
0(
0*
#651
1(
#652
b01010 %
0(
1*
#653
b1111100110100000 '
1(
#654
b01011 %
0(
#655
b1111100110110000 '
1(
#656
b01100 %
0(
0*
#657
1(
#658
b01101 %
0(
1*
#659
b1111100110110100 '
1(
#660
b01110 %
0(
#661
b1111100110110110 '
1(
#662
b01111 %
0(
#663
b1111100110110111 '
1(
#665
1#
1$
b10000 %
1)
#666
b00000 %
0(
#667
0$
1&
b1000000000000000 '
1(
b1111100110110111 +
#668
b00001 %
0(
#669
b1100000000000000 '
1(
#670
b00010 %
0(
#671
b1110000000000000 '
1(
#672
b00011 %
0(
#673
b1111000000000000 '
1(
#674
b00100 %
0(
#675
b1111100000000000 '
1(
#676
b00101 %
0(
#677
1(
0*
#678
b00110 %
0(
#679
1(
#680
b00111 %
0(
#681
b1111100100000000 '
1(
1*
#682
b01000 %
0(
#683
1(
0*
#684
b01001 %
0(
#685
1(
#686
b01010 %
0(
#687
1(
#688
b01011 %
0(
#689
b1111100100010000 '
1(
1*
#690
b01100 %
0(
#691
b1111100100011000 '
1(
#692
b01101 %
0(
#693
b1111100100011100 '
1(
#694
b01110 %
0(
#695
1(
0*
#696
b01111 %
0(
#697
b1111100100011101 '
1(
1*
#698
b10000 %
0(
#699
1(
#700
0(
#701
0#
1$
1(
0)
#702
b00000 %
0(
#702
#703
0$
0&
b1000000000000000 '
1(
#704
b00001 %
0(
#705
b1100000000000000 '
1(
#706
b00010 %
0(
#707
b1110000000000000 '
1(
#708
b00011 %
0(
#709
b1111000000000000 '
1(
#710
b00100 %
0(
#711
b1111100000000000 '
1(
#712
b00101 %
0(
0*
#713
1(
#714
b00110 %
0(
#715
1(
#716
b00111 %
0(
1*
#717
b1111100100000000 '
1(
#718
b01000 %
0(
#719
b1111100110000000 '
1(
#720
b01001 %
0(
0*
#721
1(
#722
b01010 %
0(
1*
#723
b1111100110100000 '
1(
#724
b01011 %
0(
#725
b1111100110110000 '
1(
#726
b01100 %
0(
0*
#727
1(
#728
b01101 %
0(
1*
#729
b1111100110110100 '
1(
#730
b01110 %
0(
#731
b1111100110110110 '
1(
#732
b01111 %
0(
#733
b1111100110110111 '
1(
#735
1#
1$
b10000 %
1)
#736
b00000 %
0(
#737
0$
1&
b1000000000000000 '
1(
#738
b00001 %
0(
#739
b1100000000000000 '
1(
#740
b00010 %
0(
#741
b1110000000000000 '
1(
#742
b00011 %
0(
#743
b1111000000000000 '
1(
#744
b00100 %
0(
#745
b1111100000000000 '
1(
#746
b00101 %
0(
#747
1(
0*
#748
b00110 %
0(
#749
1(
#750
b00111 %
0(
#751
b1111100100000000 '
1(
1*
#752
b01000 %
0(
#753
1(
0*
#754
b01001 %
0(
#755
1(
#756
b01010 %
0(
#757
b1111100100100000 '
1(
1*
#758
b01011 %
0(
#759
1(
0*
#760
b01100 %
0(
#761
1(
#762
b01101 %
0(
#763
1(
#764
b01110 %
0(
#765
1(
#766
b01111 %
0(
#767
1(
#768
b10000 %
0(
#769
1(
#770
0(
#771
0#
1$
1(
0)
#772
b00000 %
0(
#772
1*
#773
0$
0&
b1000000000000000 '
1(
b1111100100100000 ,
#774
b00001 %
0(
#775
b1100000000000000 '
1(
#776
b00010 %
0(
#777
b1110000000000000 '
1(
#778
b00011 %
0(
#779
b1111000000000000 '
1(
#780
b00100 %
0(
#781
b1111100000000000 '
1(
#782
b00101 %
0(
0*
#783
1(
#784
b00110 %
0(
#785
1(
#786
b00111 %
0(
1*
#787
b1111100100000000 '
1(
#788
b01000 %
0(
#789
b1111100110000000 '
1(
#790
b01001 %
0(
0*
#791
1(
#792
b01010 %
0(
1*
#793
b1111100110100000 '
1(
#794
b01011 %
0(
#795
b1111100110110000 '
1(
#796
b01100 %
0(
#797
b1111100110111000 '
1(
#798
b01101 %
0(
0*
#799
1(
#800
b01110 %
0(
#801
1(
#802
b01111 %
0(
#803
1(
#805
1#
1$
b10000 %
1)
#806
b00000 %
0(
#807
0$
1&
b1000000000000000 '
1(
1*
b1111100110111000 +
#808
b00001 %
0(
#809
b1100000000000000 '
1(
#810
b00010 %
0(
#811
b1110000000000000 '
1(
#812
b00011 %
0(
#813
b1111000000000000 '
1(
#814
b00100 %
0(
#815
b1111100000000000 '
1(
#816
b00101 %
0(
#817
1(
0*
#818
b00110 %
0(
#819
1(
#820
b00111 %
0(
#821
b1111100100000000 '
1(
1*
#822
b01000 %
0(
#823
1(
0*
#824
b01001 %
0(
#825
1(
#826
b01010 %
0(
#827
1(
#828
b01011 %
0(
#829
b1111100100010000 '
1(
1*
#830
b01100 %
0(
#831
b1111100100011000 '
1(
#832
b01101 %
0(
#833
b1111100100011100 '
1(
#834
b01110 %
0(
#835
b1111100100011110 '
1(
#836
b01111 %
0(
#837
b1111100100011111 '
1(
#838
b10000 %
0(
#839
1(
#840
0(
#841
0#
1$
1(
0)
#842
b00000 %
0(
#842
#843
0$
0&
b1000000000000000 '
1(
b1111100100011111 ,
#844
b00001 %
0(
#845
b1100000000000000 '
1(
#846
b00010 %
0(
#847
b1110000000000000 '
1(
#848
b00011 %
0(
#849
b1111000000000000 '
1(
#850
b00100 %
0(
#851
b1111100000000000 '
1(
#852
b00101 %
0(
0*
#853
1(
#854
b00110 %
0(
#855
1(
#856
b00111 %
0(
1*
#857
b1111100100000000 '
1(
#858
b01000 %
0(
#859
b1111100110000000 '
1(
#860
b01001 %
0(
0*
#861
1(
#862
b01010 %
0(
1*
#863
b1111100110100000 '
1(
#864
b01011 %
0(
#865
b1111100110110000 '
1(
#866
b01100 %
0(
#867
b1111100110111000 '
1(
#868
b01101 %
0(
0*
#869
1(
#870
b01110 %
0(
#871
1(
#872
b01111 %
0(
#873
1(
#875
1#
1$
b10000 %
1)
#876
b00000 %
0(
#877
0$
1&
b1000000000000000 '
1(
1*
#878
b00001 %
0(
#879
b1100000000000000 '
1(
#880
b00010 %
0(
#881
b1110000000000000 '
1(
#882
b00011 %
0(
#883
b1111000000000000 '
1(
#884
b00100 %
0(
#885
b1111100000000000 '
1(
#886
b00101 %
0(
#887
1(
0*
#888
b00110 %
0(
#889
1(
#890
b00111 %
0(
#891
b1111100100000000 '
1(
1*
#892
b01000 %
0(
#893
1(
0*
#894
b01001 %
0(
#895
1(
#896
b01010 %
0(
#897
1(
#898
b01011 %
0(
#899
b1111100100010000 '
1(
1*
#900
b01100 %
0(
#901
b1111100100011000 '
1(
#902
b01101 %
0(
#903
b1111100100011100 '
1(
#904
b01110 %
0(
#905
b1111100100011110 '
1(
#906
b01111 %
0(
#907
b1111100100011111 '
1(
#908
b10000 %
0(
#909
1(
#910
0(
#911
0#
1$
1(
0)
#912
b00000 %
0(
#912
#913
0$
0&
b1000000000000000 '
1(
#914
b00001 %
0(
#915
b1100000000000000 '
1(
#916
b00010 %
0(
#917
b1110000000000000 '
1(
#918
b00011 %
0(
#919
b1111000000000000 '
1(
#920
b00100 %
0(
#921
b1111100000000000 '
1(
#922
b00101 %
0(
0*
#923
1(
#924
b00110 %
0(
#925
1(
#926
b00111 %
0(
1*
#927
b1111100100000000 '
1(
#928
b01000 %
0(
#929
b1111100110000000 '
1(
#930
b01001 %
0(
0*
#931
1(
#932
b01010 %
0(
1*
#933
b1111100110100000 '
1(
#934
b01011 %
0(
#935
b1111100110110000 '
1(
#936
b01100 %
0(
#937
b1111100110111000 '
1(
#938
b01101 %
0(
0*
#939
1(
#940
b01110 %
0(
#941
1(
#942
b01111 %
0(
#943
1(
#945
1#
1$
b10000 %
1)
#946
b00000 %
0(
#947
0$
1&
b1000000000000000 '
1(
1*
#948
b00001 %
0(
#949
b1100000000000000 '
1(
#950
b00010 %
0(
#951
b1110000000000000 '
1(
#952
b00011 %
0(
#953
b1111000000000000 '
1(
#954
b00100 %
0(
#955
b1111100000000000 '
1(
#956
b00101 %
0(
#957
1(
0*
#958
b00110 %
0(
#959
1(
#960
b00111 %
0(
#961
b1111100100000000 '
1(
1*
#962
b01000 %
0(
#963
1(
0*
#964
b01001 %
0(
#965
1(
#966
b01010 %
0(
#967
b1111100100100000 '
1(
1*
#968
b01011 %
0(
#969
1(
0*
#970
b01100 %
0(
#971
1(
#972
b01101 %
0(
#973
1(
#974
b01110 %
0(
#975
1(
#976
b01111 %
0(
#977
1(
#978
b10000 %
0(
#979
1(
#980
0(
#981
0#
1$
1(
0)
#982
b00000 %
0(
#982
1*
#983
0$
0&
b1000000000000000 '
1(
b1111100100100000 ,
#984
b00001 %
0(
#985
b1100000000000000 '
1(
#986
b00010 %
0(
#987
b1110000000000000 '
1(
#988
b00011 %
0(
#989
b1111000000000000 '
1(
#990
b00100 %
0(
#991
b1111100000000000 '
1(
#992
b00101 %
0(
0*
#993
1(
#994
b00110 %
0(
#995
1(
#996
b00111 %
0(
1*
#997
b1111100100000000 '
1(
#998
b01000 %
0(
#999
b1111100110000000 '
1(
#1000
b01001 %
0(
0*
#1001
1(
#1002
b01010 %
0(
1*
#1003
b1111100110100000 '
1(
#1004
b01011 %
0(
#1005
b1111100110110000 '
1(
#1006
b01100 %
0(
0*
#1007
1(
#1008
b01101 %
0(
1*
#1009
b1111100110110100 '
1(
#1010
b01110 %
0(
#1011
b1111100110110110 '
1(
#1012
b01111 %
0(
#1013
b1111100110110111 '
1(
#1015
1#
1$
b10000 %
1)
#1016
b00000 %
0(
#1017
0$
1&
b1000000000000000 '
1(
b1111100110110111 +
#1018
b00001 %
0(
#1019
b1100000000000000 '
1(
#1020
b00010 %
0(
#1021
b1110000000000000 '
1(
#1022
b00011 %
0(
#1023
b1111000000000000 '
1(
#1024
b00100 %
0(
#1025
b1111100000000000 '
1(
#1026
b00101 %
0(
#1027
1(
0*
#1028
b00110 %
0(
#1029
1(
#1030
b00111 %
0(
#1031
b1111100100000000 '
1(
1*
#1032
b01000 %
0(
#1033
1(
0*
#1034
b01001 %
0(
#1035
1(
#1036
b01010 %
0(
#1037
b1111100100100000 '
1(
1*
#1038
b01011 %
0(
#1039
1(
0*
#1040
b01100 %
0(
#1041
1(
#1042
b01101 %
0(
#1043
1(
#1044
b01110 %
0(
#1045
1(
#1046
b01111 %
0(
#1047
1(
#1048
b10000 %
0(
#1049
1(
#1050
0(
#1051
0#
1$
1(
0)
#1052
b00000 %
0(
#1052
1*
#1053
0$
0&
b1000000000000000 '
1(
#1054
b00001 %
0(
#1055
b1100000000000000 '
1(
#1056
b00010 %
0(
#1057
b1110000000000000 '
1(
#1058
b00011 %
0(
#1059
b1111000000000000 '
1(
#1060
b00100 %
0(
#1061
b1111100000000000 '
1(
#1062
b00101 %
0(
0*
#1063
1(
#1064
b00110 %
0(
#1065
1(
#1066
b00111 %
0(
1*
#1067
b1111100100000000 '
1(
#1068
b01000 %
0(
#1069
b1111100110000000 '
1(
#1070
b01001 %
0(
0*
#1071
1(
#1072
b01010 %
0(
1*
#1073
b1111100110100000 '
1(
#1074
b01011 %
0(
#1075
b1111100110110000 '
1(
#1076
b01100 %
0(
0*
#1077
1(
#1078
b01101 %
0(
1*
#1079
b1111100110110100 '
1(
#1080
b01110 %
0(
#1081
b1111100110110110 '
1(
#1082
b01111 %
0(
#1083
b1111100110110111 '
1(
#1085
1#
1$
b10000 %
1)
#1086
b00000 %
0(
#1087
0$
1&
b1000000000000000 '
1(
#1088
b00001 %
0(
#1089
b1100000000000000 '
1(
#1090
b00010 %
0(
#1091
b1110000000000000 '
1(
#1092
b00011 %
0(
#1093
b1111000000000000 '
1(
#1094
b00100 %
0(
#1095
b1111100000000000 '
1(
#1096
b00101 %
0(
#1097
1(
0*
#1098
b00110 %
0(
#1099
1(
#1100
b00111 %
0(
#1101
b1111100100000000 '
1(
1*
#1102
b01000 %
0(
#1103
1(
0*
#1104
b01001 %
0(
#1105
1(
#1106
b01010 %
0(
#1107
b1111100100100000 '
1(
1*
#1108
b01011 %
0(
#1109
1(
0*
#1110
b01100 %
0(
#1111
1(
#1112
b01101 %
0(
#1113
1(
#1114
b01110 %
0(
#1115
1(
#1116
b01111 %
0(
#1117
b1111100100100001 '
1(
1*
#1118
b10000 %
0(
#1119
1(
#1120
0(
#1121
0#
1$
1(
0)
