i2s/obj_dir/out.vcd
$version Generated by VerilatedVcd $end
$date Mon Nov 25 15:22:33 2019
 $end
$timescale   1ns $end

 $scope module TOP $end
  $var wire 16 + data_left [15:0] $end
  $var wire 16 , data_right [15:0] $end
  $var wire  1 ( sck $end
  $var wire  1 * sd $end
  $var wire  1 ) ws $end
  $scope module i2s_master $end
   $var wire  5 % counter [4:0] $end
   $var wire 16 + data_left [15:0] $end
   $var wire 16 , data_right [15:0] $end
   $var wire  1 ( sck $end
   $var wire  1 * sd $end
   $var wire 16 ' shift [0:15] $end
   $var wire 32 - width [31:0] $end
   $var wire  1 ) ws $end
   $var wire  1 # wsd $end
   $var wire  1 & wsdd $end
   $var wire  1 $ wsp $end
  $upscope $end
 $upscope $end
$enddefinitions $end


#0
0#
0$
b00000 %
0&
b0000000000000000 '
1(
0)
0*
b0000000000000000 +
b0000000000000000 ,
b00000000000000000000000000010000 -
#1
b00001 %
0(
#2
b0100000000000000 '
1(
1*
#3
b00010 %
0(
#4
b0110000000000000 '
1(
#5
b00011 %
0(
#6
b0111000000000000 '
1(
#7
b00100 %
0(
#8
b0111100000000000 '
1(
#9
b00101 %
0(
#10
b0111110000000000 '
1(
#11
b00110 %
0(
#12
1(
0*
#13
b00111 %
0(
#14
1(
#15
b01000 %
0(
#16
b0111110010000000 '
1(
1*
#17
b01001 %
0(
#18
b0111110011000000 '
1(
#19
b01010 %
0(
#20
1(
0*
#21
b01011 %
0(
#22
b0111110011010000 '
1(
1*
#23
b01100 %
0(
#24
b0111110011011000 '
1(
#25
b01101 %
0(
#26
1(
0*
#27
b01110 %
0(
#28
b0111110011011010 '
1(
1*
#29
b01111 %
0(
#30
1(
0*
#31
b10000 %
0(
#32
1(
1*
#33
0(
#34
1#
1$
1(
1)
#35
b00000 %
0(
#36
0$
1&
b1000000000000000 '
1(
b0111110011011010 +
#37
b00001 %
0(
#38
b1100000000000000 '
1(
#39
b00010 %
0(
#40
b1110000000000000 '
1(
#41
b00011 %
0(
#42
b1111000000000000 '
1(
#43
b00100 %
0(
#44
b1111100000000000 '
1(
#45
b00101 %
0(
#46
1(
0*
#47
b00110 %
0(
#48
1(
#49
b00111 %
0(
#50
b1111100100000000 '
1(
1*
#51
b01000 %
0(
#52
1(
0*
#53
b01001 %
0(
#54
1(
#55
b01010 %
0(
#56
1(
#57
b01011 %
0(
#58
b1111100100010000 '
1(
1*
#59
b01100 %
0(
#60
b1111100100011000 '
1(
#61
b01101 %
0(
#62
b1111100100011100 '
1(
#63
b01110 %
0(
#64
1(
0*
#65
b01111 %
0(
#66
b1111100100011101 '
1(
1*
#67
b10000 %
0(
#68
0#
1$
1(
0)
#69
b00000 %
0(
#70
0$
0&
b1000000000000000 '
1(
b1111100100011101 ,
#71
b00001 %
0(
#72
b1100000000000000 '
1(
#73
b00010 %
0(
#74
b1110000000000000 '
1(
#75
b00011 %
0(
#76
b1111000000000000 '
1(
#77
b00100 %
0(
#78
b1111100000000000 '
1(
#79
b00101 %
0(
#80
1(
0*
#81
b00110 %
0(
#82
1(
#83
b00111 %
0(
#84
b1111100100000000 '
1(
1*
#85
b01000 %
0(
#86
b1111100110000000 '
1(
#87
b01001 %
0(
#88
1(
0*
#89
b01010 %
0(
#90
b1111100110100000 '
1(
1*
#91
b01011 %
0(
#92
b1111100110110000 '
1(
#93
b01100 %
0(
#94
1(
0*
#95
b01101 %
0(
#96
b1111100110110100 '
1(
1*
#97
b01110 %
0(
#98
1(
0*
#99
b01111 %
0(
#100
b1111100110110101 '
1(
1*
#101
b10000 %
0(
#102
1#
1$
1(
1)
#103
b00000 %
0(
#104
0$
1&
b1000000000000000 '
1(
b1111100110110101 +
#105
b00001 %
0(
#106
b1100000000000000 '
1(
#107
b00010 %
0(
#108
b1110000000000000 '
1(
#109
b00011 %
0(
#110
b1111000000000000 '
1(
#111
b00100 %
0(
#112
b1111100000000000 '
1(
#113
b00101 %
0(
#114
1(
0*
#115
b00110 %
0(
#116
1(
#117
b00111 %
0(
#118
b1111100100000000 '
1(
1*
#119
b01000 %
0(
#120
1(
0*
#121
b01001 %
0(
#122
1(
#123
b01010 %
0(
#124
1(
#125
b01011 %
0(
#126
b1111100100010000 '
1(
1*
#127
b01100 %
0(
#128
b1111100100011000 '
1(
#129
b01101 %
0(
#130
b1111100100011100 '
1(
#131
b01110 %
0(
#132
b1111100100011110 '
1(
#133
b01111 %
0(
#134
1(
0*
#135
b10000 %
0(
#136
0#
1$
1(
0)
#137
b00000 %
0(
#138
0$
0&
b1000000000000000 '
1(
1*
b1111100100011110 ,
#139
b00001 %
0(
#140
b1100000000000000 '
1(
#141
b00010 %
0(
#142
b1110000000000000 '
1(
#143
b00011 %
0(
#144
b1111000000000000 '
1(
#145
b00100 %
0(
#146
b1111100000000000 '
1(
#147
b00101 %
0(
#148
1(
0*
#149
b00110 %
0(
#150
1(
#151
b00111 %
0(
#152
b1111100100000000 '
1(
1*
#153
b01000 %
0(
#154
b1111100110000000 '
1(
#155
b01001 %
0(
#156
1(
0*
#157
b01010 %
0(
#158
b1111100110100000 '
1(
1*
#159
b01011 %
0(
#160
b1111100110110000 '
1(
#161
b01100 %
0(
#162
1(
0*
#163
b01101 %
0(
#164
b1111100110110100 '
1(
1*
#165
b01110 %
0(
#166
1(
0*
#167
b01111 %
0(
#168
b1111100110110101 '
1(
1*
#169
b10000 %
0(
#170
1#
1$
1(
1)
#171
b00000 %
0(
#172
0$
1&
b1000000000000000 '
1(
#173
b00001 %
0(
#174
b1100000000000000 '
1(
#175
b00010 %
0(
#176
b1110000000000000 '
1(
#177
b00011 %
0(
#178
b1111000000000000 '
1(
#179
b00100 %
0(
#180
b1111100000000000 '
1(
#181
b00101 %
0(
#182
1(
0*
#183
b00110 %
0(
#184
1(
#185
b00111 %
0(
#186
b1111100100000000 '
1(
1*
#187
b01000 %
0(
#188
1(
0*
#189
b01001 %
0(
#190
1(
#191
b01010 %
0(
#192
1(
#193
b01011 %
0(
#194
b1111100100010000 '
1(
1*
#195
b01100 %
0(
#196
b1111100100011000 '
1(
#197
b01101 %
0(
#198
b1111100100011100 '
1(
#199
b01110 %
0(
#200
1(
0*
#201
b01111 %
0(
#202
1(
#203
b10000 %
0(
#204
0#
1$
1(
0)
#205
b00000 %
0(
#206
0$
0&
b1000000000000000 '
1(
1*
b1111100100011100 ,
#207
b00001 %
0(
#208
b1100000000000000 '
1(
#209
b00010 %
0(
#210
b1110000000000000 '
1(
#211
b00011 %
0(
#212
b1111000000000000 '
1(
#213
b00100 %
0(
#214
b1111100000000000 '
1(
#215
b00101 %
0(
#216
1(
0*
#217
b00110 %
0(
#218
1(
#219
b00111 %
0(
#220
b1111100100000000 '
1(
1*
#221
b01000 %
0(
#222
b1111100110000000 '
1(
#223
b01001 %
0(
#224
1(
0*
#225
b01010 %
0(
#226
b1111100110100000 '
1(
1*
#227
b01011 %
0(
#228
b1111100110110000 '
1(
#229
b01100 %
0(
#230
1(
0*
#231
b01101 %
0(
#232
b1111100110110100 '
1(
1*
#233
b01110 %
0(
#234
1(
0*
#235
b01111 %
0(
#236
b1111100110110101 '
1(
1*
#237
b10000 %
0(
#238
1#
1$
1(
1)
#239
b00000 %
0(
#240
0$
1&
b1000000000000000 '
1(
#241
b00001 %
0(
#242
b1100000000000000 '
1(
#243
b00010 %
0(
#244
b1110000000000000 '
1(
#245
b00011 %
0(
#246
b1111000000000000 '
1(
#247
b00100 %
0(
#248
b1111100000000000 '
1(
#249
b00101 %
0(
#250
1(
0*
#251
b00110 %
0(
#252
1(
#253
b00111 %
0(
#254
b1111100100000000 '
1(
1*
#255
b01000 %
0(
#256
1(
0*
#257
b01001 %
0(
#258
1(
#259
b01010 %
0(
#260
1(
#261
b01011 %
0(
#262
b1111100100010000 '
1(
1*
#263
b01100 %
0(
#264
b1111100100011000 '
1(
#265
b01101 %
0(
#266
b1111100100011100 '
1(
#267
b01110 %
0(
#268
1(
0*
#269
b01111 %
0(
#270
1(
#271
b10000 %
0(
#272
0#
1$
1(
0)
#273
b00000 %
0(
#274
0$
0&
b1000000000000000 '
1(
1*
#275
b00001 %
0(
#276
b1100000000000000 '
1(
#277
b00010 %
0(
#278
b1110000000000000 '
1(
#279
b00011 %
0(
#280
b1111000000000000 '
1(
#281
b00100 %
0(
#282
b1111100000000000 '
1(
#283
b00101 %
0(
#284
1(
0*
#285
b00110 %
0(
#286
1(
#287
b00111 %
0(
#288
b1111100100000000 '
1(
1*
#289
b01000 %
0(
#290
b1111100110000000 '
1(
#291
b01001 %
0(
#292
1(
0*
#293
b01010 %
0(
#294
b1111100110100000 '
1(
1*
#295
b01011 %
0(
#296
b1111100110110000 '
1(
#297
b01100 %
0(
#298
1(
0*
#299
b01101 %
0(
#300
b1111100110110100 '
1(
1*
#301
b01110 %
0(
#302
1(
0*
#303
b01111 %
0(
#304
b1111100110110101 '
1(
1*
#305
b10000 %
0(
#306
1#
1$
1(
1)
#307
b00000 %
0(
#308
0$
1&
b1000000000000000 '
1(
#309
b00001 %
0(
#310
b1100000000000000 '
1(
#311
b00010 %
0(
#312
b1110000000000000 '
1(
#313
b00011 %
0(
#314
b1111000000000000 '
1(
#315
b00100 %
0(
#316
b1111100000000000 '
1(
#317
b00101 %
0(
#318
1(
0*
#319
b00110 %
0(
#320
1(
#321
b00111 %
0(
#322
b1111100100000000 '
1(
1*
#323
b01000 %
0(
#324
1(
0*
#325
b01001 %
0(
#326
1(
#327
b01010 %
0(
#328
1(
#329
b01011 %
0(
#330
b1111100100010000 '
1(
1*
#331
b01100 %
0(
#332
b1111100100011000 '
1(
#333
b01101 %
0(
#334
b1111100100011100 '
1(
#335
b01110 %
0(
#336
1(
0*
#337
b01111 %
0(
#338
b1111100100011101 '
1(
1*
#339
b10000 %
0(
#340
0#
1$
1(
0)
#341
b00000 %
0(
#342
0$
0&
b1000000000000000 '
1(
b1111100100011101 ,
#343
b00001 %
0(
#344
b1100000000000000 '
1(
#345
b00010 %
0(
#346
b1110000000000000 '
1(
#347
b00011 %
0(
#348
b1111000000000000 '
1(
#349
b00100 %
0(
#350
b1111100000000000 '
1(
#351
b00101 %
0(
#352
1(
0*
#353
b00110 %
0(
#354
1(
#355
b00111 %
0(
#356
b1111100100000000 '
1(
1*
#357
b01000 %
0(
#358
b1111100110000000 '
1(
#359
b01001 %
0(
#360
1(
0*
#361
b01010 %
0(
#362
b1111100110100000 '
1(
1*
#363
b01011 %
0(
#364
b1111100110110000 '
1(
#365
b01100 %
0(
#366
1(
0*
#367
b01101 %
0(
#368
b1111100110110100 '
1(
1*
#369
b01110 %
0(
#370
b1111100110110110 '
1(
#371
b01111 %
0(
#372
b1111100110110111 '
1(
#373
b10000 %
0(
#374
1#
1$
1(
1)
#375
b00000 %
0(
#376
0$
1&
b1000000000000000 '
1(
b1111100110110111 +
#377
b00001 %
0(
#378
b1100000000000000 '
1(
#379
b00010 %
0(
#380
b1110000000000000 '
1(
#381
b00011 %
0(
#382
b1111000000000000 '
1(
#383
b00100 %
0(
#384
b1111100000000000 '
1(
#385
b00101 %
0(
#386
1(
0*
#387
b00110 %
0(
#388
1(
#389
b00111 %
0(
#390
b1111100100000000 '
1(
1*
#391
b01000 %
0(
#392
1(
0*
#393
b01001 %
0(
#394
1(
#395
b01010 %
0(
#396
1(
#397
b01011 %
0(
#398
b1111100100010000 '
1(
1*
#399
b01100 %
0(
#400
b1111100100011000 '
1(
#401
b01101 %
0(
#402
b1111100100011100 '
1(
#403
b01110 %
0(
#404
1(
0*
#405
b01111 %
0(
#406
1(
#407
b10000 %
0(
#408
0#
1$
1(
0)
#409
b00000 %
0(
#410
0$
0&
b1000000000000000 '
1(
1*
b1111100100011100 ,
#411
b00001 %
0(
#412
b1100000000000000 '
1(
#413
b00010 %
0(
#414
b1110000000000000 '
1(
#415
b00011 %
0(
#416
b1111000000000000 '
1(
#417
b00100 %
0(
#418
b1111100000000000 '
1(
#419
b00101 %
0(
#420
1(
0*
#421
b00110 %
0(
#422
1(
#423
b00111 %
0(
#424
b1111100100000000 '
1(
1*
#425
b01000 %
0(
#426
b1111100110000000 '
1(
#427
b01001 %
0(
#428
1(
0*
#429
b01010 %
0(
#430
b1111100110100000 '
1(
1*
#431
b01011 %
0(
#432
b1111100110110000 '
1(
#433
b01100 %
0(
#434
1(
0*
#435
b01101 %
0(
#436
b1111100110110100 '
1(
1*
#437
b01110 %
0(
#438
b1111100110110110 '
1(
#439
b01111 %
0(
#440
b1111100110110111 '
1(
#441
b10000 %
0(
#442
1#
1$
1(
1)
#443
b00000 %
0(
#444
0$
1&
b1000000000000000 '
1(
#445
b00001 %
0(
#446
b1100000000000000 '
1(
#447
b00010 %
0(
#448
b1110000000000000 '
1(
#449
b00011 %
0(
#450
b1111000000000000 '
1(
#451
b00100 %
0(
#452
b1111100000000000 '
1(
#453
b00101 %
0(
#454
1(
0*
#455
b00110 %
0(
#456
1(
#457
b00111 %
0(
#458
b1111100100000000 '
1(
1*
#459
b01000 %
0(
#460
1(
0*
#461
b01001 %
0(
#462
1(
#463
b01010 %
0(
#464
1(
#465
b01011 %
0(
#466
b1111100100010000 '
1(
1*
#467
b01100 %
0(
#468
b1111100100011000 '
1(
#469
b01101 %
0(
#470
b1111100100011100 '
1(
#471
b01110 %
0(
#472
1(
0*
#473
b01111 %
0(
#474
b1111100100011101 '
1(
1*
#475
b10000 %
0(
#476
0#
1$
1(
0)
#477
b00000 %
0(
#478
0$
0&
b1000000000000000 '
1(
b1111100100011101 ,
#479
b00001 %
0(
#480
b1100000000000000 '
1(
#481
b00010 %
0(
#482
b1110000000000000 '
1(
#483
b00011 %
0(
#484
b1111000000000000 '
1(
#485
b00100 %
0(
#486
b1111100000000000 '
1(
#487
b00101 %
0(
#488
1(
0*
#489
b00110 %
0(
#490
1(
#491
b00111 %
0(
#492
b1111100100000000 '
1(
1*
#493
b01000 %
0(
#494
b1111100110000000 '
1(
#495
b01001 %
0(
#496
1(
0*
#497
b01010 %
0(
#498
b1111100110100000 '
1(
1*
#499
b01011 %
0(
#500
b1111100110110000 '
1(
#501
b01100 %
0(
#502
1(
0*
#503
b01101 %
0(
#504
b1111100110110100 '
1(
1*
#505
b01110 %
0(
#506
b1111100110110110 '
1(
#507
b01111 %
0(
#508
1(
0*
#509
b10000 %
0(
#510
1#
1$
1(
1)
#511
b00000 %
0(
#512
0$
1&
b1000000000000000 '
1(
1*
b1111100110110110 +
#513
b00001 %
0(
#514
b1100000000000000 '
1(
#515
b00010 %
0(
#516
b1110000000000000 '
1(
#517
b00011 %
0(
#518
b1111000000000000 '
1(
#519
b00100 %
0(
#520
b1111100000000000 '
1(
#521
b00101 %
0(
#522
1(
0*
#523
b00110 %
0(
#524
1(
#525
b00111 %
0(
#526
b1111100100000000 '
1(
1*
#527
b01000 %
0(
#528
1(
0*
#529
b01001 %
0(
#530
1(
#531
b01010 %
0(
#532
1(
#533
b01011 %
0(
#534
b1111100100010000 '
1(
1*
#535
b01100 %
0(
#536
b1111100100011000 '
1(
#537
b01101 %
0(
#538
b1111100100011100 '
1(
#539
b01110 %
0(
#540
b1111100100011110 '
1(
#541
b01111 %
0(
#542
1(
0*
#543
b10000 %
0(
#544
0#
1$
1(
0)
#545
b00000 %
0(
#546
0$
0&
b1000000000000000 '
1(
1*
b1111100100011110 ,
#547
b00001 %
0(
#548
b1100000000000000 '
1(
#549
b00010 %
0(
#550
b1110000000000000 '
1(
#551
b00011 %
0(
#552
b1111000000000000 '
1(
#553
b00100 %
0(
#554
b1111100000000000 '
1(
#555
b00101 %
0(
#556
1(
0*
#557
b00110 %
0(
#558
1(
#559
b00111 %
0(
#560
b1111100100000000 '
1(
1*
#561
b01000 %
0(
#562
b1111100110000000 '
1(
#563
b01001 %
0(
#564
1(
0*
#565
b01010 %
0(
#566
b1111100110100000 '
1(
1*
#567
b01011 %
0(
#568
b1111100110110000 '
1(
#569
b01100 %
0(
#570
1(
0*
#571
b01101 %
0(
#572
b1111100110110100 '
1(
1*
#573
b01110 %
0(
#574
b1111100110110110 '
1(
#575
b01111 %
0(
#576
1(
0*
#577
b10000 %
0(
#578
1#
1$
1(
1)
#579
b00000 %
0(
#580
0$
1&
b1000000000000000 '
1(
1*
#581
b00001 %
0(
#582
b1100000000000000 '
1(
#583
b00010 %
0(
#584
b1110000000000000 '
1(
#585
b00011 %
0(
#586
b1111000000000000 '
1(
#587
b00100 %
0(
#588
b1111100000000000 '
1(
#589
b00101 %
0(
#590
1(
0*
#591
b00110 %
0(
#592
1(
#593
b00111 %
0(
#594
b1111100100000000 '
1(
1*
#595
b01000 %
0(
#596
1(
0*
#597
b01001 %
0(
#598
1(
#599
b01010 %
0(
#600
1(
#601
b01011 %
0(
#602
b1111100100010000 '
1(
1*
#603
b01100 %
0(
#604
b1111100100011000 '
1(
#605
b01101 %
0(
#606
b1111100100011100 '
1(
#607
b01110 %
0(
#608
1(
0*
#609
b01111 %
0(
#610
b1111100100011101 '
1(
1*
#611
b10000 %
0(
#612
0#
1$
1(
0)
#613
b00000 %
0(
#614
0$
0&
b1000000000000000 '
1(
b1111100100011101 ,
#615
b00001 %
0(
#616
b1100000000000000 '
1(
#617
b00010 %
0(
#618
b1110000000000000 '
1(
#619
b00011 %
0(
#620
b1111000000000000 '
1(
#621
b00100 %
0(
#622
b1111100000000000 '
1(
#623
b00101 %
0(
#624
1(
0*
#625
b00110 %
0(
#626
1(
#627
b00111 %
0(
#628
b1111100100000000 '
1(
1*
#629
b01000 %
0(
#630
b1111100110000000 '
1(
#631
b01001 %
0(
#632
1(
0*
#633
b01010 %
0(
#634
b1111100110100000 '
1(
1*
#635
b01011 %
0(
#636
b1111100110110000 '
1(
#637
b01100 %
0(
#638
1(
0*
#639
b01101 %
0(
#640
b1111100110110100 '
1(
1*
#641
b01110 %
0(
#642
b1111100110110110 '
1(
#643
b01111 %
0(
#644
b1111100110110111 '
1(
#645
b10000 %
0(
#646
1#
1$
1(
1)
#647
b00000 %
0(
#648
0$
1&
b1000000000000000 '
1(
b1111100110110111 +
#649
b00001 %
0(
#650
b1100000000000000 '
1(
#651
b00010 %
0(
#652
b1110000000000000 '
1(
#653
b00011 %
0(
#654
b1111000000000000 '
1(
#655
b00100 %
0(
#656
b1111100000000000 '
1(
#657
b00101 %
0(
#658
1(
0*
#659
b00110 %
0(
#660
1(
#661
b00111 %
0(
#662
b1111100100000000 '
1(
1*
#663
b01000 %
0(
#664
1(
0*
#665
b01001 %
0(
#666
1(
#667
b01010 %
0(
#668
1(
#669
b01011 %
0(
#670
b1111100100010000 '
1(
1*
#671
b01100 %
0(
#672
b1111100100011000 '
1(
#673
b01101 %
0(
#674
b1111100100011100 '
1(
#675
b01110 %
0(
#676
1(
0*
#677
b01111 %
0(
#678
b1111100100011101 '
1(
1*
#679
b10000 %
0(
#680
0#
1$
1(
0)
#681
b00000 %
0(
#682
0$
0&
b1000000000000000 '
1(
#683
b00001 %
0(
#684
b1100000000000000 '
1(
#685
b00010 %
0(
#686
b1110000000000000 '
1(
#687
b00011 %
0(
#688
b1111000000000000 '
1(
#689
b00100 %
0(
#690
b1111100000000000 '
1(
#691
b00101 %
0(
#692
1(
0*
#693
b00110 %
0(
#694
1(
#695
b00111 %
0(
#696
b1111100100000000 '
1(
1*
#697
b01000 %
0(
#698
b1111100110000000 '
1(
#699
b01001 %
0(
#700
1(
0*
#701
b01010 %
0(
#702
b1111100110100000 '
1(
1*
#703
b01011 %
0(
#704
b1111100110110000 '
1(
#705
b01100 %
0(
#706
1(
0*
#707
b01101 %
0(
#708
b1111100110110100 '
1(
1*
#709
b01110 %
0(
#710
b1111100110110110 '
1(
#711
b01111 %
0(
#712
b1111100110110111 '
1(
#713
b10000 %
0(
#714
1#
1$
1(
1)
#715
b00000 %
0(
#716
0$
1&
b1000000000000000 '
1(
#717
b00001 %
0(
#718
b1100000000000000 '
1(
#719
b00010 %
0(
#720
b1110000000000000 '
1(
#721
b00011 %
0(
#722
b1111000000000000 '
1(
#723
b00100 %
0(
#724
b1111100000000000 '
1(
#725
b00101 %
0(
#726
1(
0*
#727
b00110 %
0(
#728
1(
#729
b00111 %
0(
#730
b1111100100000000 '
1(
1*
#731
b01000 %
0(
#732
1(
0*
#733
b01001 %
0(
#734
1(
#735
b01010 %
0(
#736
b1111100100100000 '
1(
1*
#737
b01011 %
0(
#738
1(
0*
#739
b01100 %
0(
#740
1(
#741
b01101 %
0(
#742
1(
#743
b01110 %
0(
#744
1(
#745
b01111 %
0(
#746
1(
#747
b10000 %
0(
#748
0#
1$
1(
0)
#749
b00000 %
0(
#750
0$
0&
b1000000000000000 '
1(
1*
b1111100100100000 ,
#751
b00001 %
0(
#752
b1100000000000000 '
1(
#753
b00010 %
0(
#754
b1110000000000000 '
1(
#755
b00011 %
0(
#756
b1111000000000000 '
1(
#757
b00100 %
0(
#758
b1111100000000000 '
1(
#759
b00101 %
0(
#760
1(
0*
#761
b00110 %
0(
#762
1(
#763
b00111 %
0(
#764
b1111100100000000 '
1(
1*
#765
b01000 %
0(
#766
b1111100110000000 '
1(
#767
b01001 %
0(
#768
1(
0*
#769
b01010 %
0(
#770
b1111100110100000 '
1(
1*
#771
b01011 %
0(
#772
b1111100110110000 '
1(
#773
b01100 %
0(
#774
b1111100110111000 '
1(
#775
b01101 %
0(
#776
1(
0*
#777
b01110 %
0(
#778
1(
#779
b01111 %
0(
#780
1(
#781
b10000 %
0(
#782
1#
1$
1(
1)
#783
b00000 %
0(
#784
0$
1&
b1000000000000000 '
1(
1*
b1111100110111000 +
#785
b00001 %
0(
#786
b1100000000000000 '
1(
#787
b00010 %
0(
#788
b1110000000000000 '
1(
#789
b00011 %
0(
#790
b1111000000000000 '
1(
#791
b00100 %
0(
#792
b1111100000000000 '
1(
#793
b00101 %
0(
#794
1(
0*
#795
b00110 %
0(
#796
1(
#797
b00111 %
0(
#798
b1111100100000000 '
1(
1*
#799
b01000 %
0(
#800
1(
0*
#801
b01001 %
0(
#802
1(
#803
b01010 %
0(
#804
1(
#805
b01011 %
0(
#806
b1111100100010000 '
1(
1*
#807
b01100 %
0(
#808
b1111100100011000 '
1(
#809
b01101 %
0(
#810
b1111100100011100 '
1(
#811
b01110 %
0(
#812
b1111100100011110 '
1(
#813
b01111 %
0(
#814
b1111100100011111 '
1(
#815
b10000 %
0(
#816
0#
1$
1(
0)
#817
b00000 %
0(
#818
0$
0&
b1000000000000000 '
1(
b1111100100011111 ,
#819
b00001 %
0(
#820
b1100000000000000 '
1(
#821
b00010 %
0(
#822
b1110000000000000 '
1(
#823
b00011 %
0(
#824
b1111000000000000 '
1(
#825
b00100 %
0(
#826
b1111100000000000 '
1(
#827
b00101 %
0(
#828
1(
0*
#829
b00110 %
0(
#830
1(
#831
b00111 %
0(
#832
b1111100100000000 '
1(
1*
#833
b01000 %
0(
#834
b1111100110000000 '
1(
#835
b01001 %
0(
#836
1(
0*
#837
b01010 %
0(
#838
b1111100110100000 '
1(
1*
#839
b01011 %
0(
#840
b1111100110110000 '
1(
#841
b01100 %
0(
#842
b1111100110111000 '
1(
#843
b01101 %
0(
#844
1(
0*
#845
b01110 %
0(
#846
1(
#847
b01111 %
0(
#848
1(
#849
b10000 %
0(
#850
1#
1$
1(
1)
#851
b00000 %
0(
#852
0$
1&
b1000000000000000 '
1(
1*
#853
b00001 %
0(
#854
b1100000000000000 '
1(
#855
b00010 %
0(
#856
b1110000000000000 '
1(
#857
b00011 %
0(
#858
b1111000000000000 '
1(
#859
b00100 %
0(
#860
b1111100000000000 '
1(
#861
b00101 %
0(
#862
1(
0*
#863
b00110 %
0(
#864
1(
#865
b00111 %
0(
#866
b1111100100000000 '
1(
1*
#867
b01000 %
0(
#868
1(
0*
#869
b01001 %
0(
#870
1(
#871
b01010 %
0(
#872
1(
#873
b01011 %
0(
#874
b1111100100010000 '
1(
1*
#875
b01100 %
0(
#876
b1111100100011000 '
1(
#877
b01101 %
0(
#878
b1111100100011100 '
1(
#879
b01110 %
0(
#880
b1111100100011110 '
1(
#881
b01111 %
0(
#882
b1111100100011111 '
1(
#883
b10000 %
0(
#884
0#
1$
1(
0)
#885
b00000 %
0(
#886
0$
0&
b1000000000000000 '
1(
#887
b00001 %
0(
#888
b1100000000000000 '
1(
#889
b00010 %
0(
#890
b1110000000000000 '
1(
#891
b00011 %
0(
#892
b1111000000000000 '
1(
#893
b00100 %
0(
#894
b1111100000000000 '
1(
#895
b00101 %
0(
#896
1(
0*
#897
b00110 %
0(
#898
1(
#899
b00111 %
0(
#900
b1111100100000000 '
1(
1*
#901
b01000 %
0(
#902
b1111100110000000 '
1(
#903
b01001 %
0(
#904
1(
0*
#905
b01010 %
0(
#906
b1111100110100000 '
1(
1*
#907
b01011 %
0(
#908
b1111100110110000 '
1(
#909
b01100 %
0(
#910
b1111100110111000 '
1(
#911
b01101 %
0(
#912
1(
0*
#913
b01110 %
0(
#914
1(
#915
b01111 %
0(
#916
1(
#917
b10000 %
0(
#918
1#
1$
1(
1)
#919
b00000 %
0(
#920
0$
1&
b1000000000000000 '
1(
1*
#921
b00001 %
0(
#922
b1100000000000000 '
1(
#923
b00010 %
0(
#924
b1110000000000000 '
1(
#925
b00011 %
0(
#926
b1111000000000000 '
1(
#927
b00100 %
0(
#928
b1111100000000000 '
1(
#929
b00101 %
0(
#930
1(
0*
#931
b00110 %
0(
#932
1(
#933
b00111 %
0(
#934
b1111100100000000 '
1(
1*
#935
b01000 %
0(
#936
1(
0*
#937
b01001 %
0(
#938
1(
#939
b01010 %
0(
#940
b1111100100100000 '
1(
1*
#941
b01011 %
0(
#942
1(
0*
#943
b01100 %
0(
#944
1(
#945
b01101 %
0(
#946
1(
#947
b01110 %
0(
#948
1(
#949
b01111 %
0(
#950
1(
#951
b10000 %
0(
#952
0#
1$
1(
0)
#953
b00000 %
0(
#954
0$
0&
b1000000000000000 '
1(
1*
b1111100100100000 ,
#955
b00001 %
0(
#956
b1100000000000000 '
1(
#957
b00010 %
0(
#958
b1110000000000000 '
1(
#959
b00011 %
0(
#960
b1111000000000000 '
1(
#961
b00100 %
0(
#962
b1111100000000000 '
1(
#963
b00101 %
0(
#964
1(
0*
#965
b00110 %
0(
#966
1(
#967
b00111 %
0(
#968
b1111100100000000 '
1(
1*
#969
b01000 %
0(
#970
b1111100110000000 '
1(
#971
b01001 %
0(
#972
1(
0*
#973
b01010 %
0(
#974
b1111100110100000 '
1(
1*
#975
b01011 %
0(
#976
b1111100110110000 '
1(
#977
b01100 %
0(
#978
1(
0*
#979
b01101 %
0(
#980
b1111100110110100 '
1(
1*
#981
b01110 %
0(
#982
b1111100110110110 '
1(
#983
b01111 %
0(
#984
b1111100110110111 '
1(
#985
b10000 %
0(
#986
1#
1$
1(
1)
#987
b00000 %
0(
#988
0$
1&
b1000000000000000 '
1(
b1111100110110111 +
#989
b00001 %
0(
#990
b1100000000000000 '
1(
#991
b00010 %
0(
#992
b1110000000000000 '
1(
#993
b00011 %
0(
#994
b1111000000000000 '
1(
#995
b00100 %
0(
#996
b1111100000000000 '
1(
#997
b00101 %
0(
#998
1(
0*
#999
b00110 %
0(
#1000
1(
#1001
b00111 %
0(
#1002
b1111100100000000 '
1(
1*
#1003
b01000 %
0(
#1004
1(
0*
#1005
b01001 %
0(
#1006
1(
#1007
b01010 %
0(
#1008
b1111100100100000 '
1(
1*
#1009
b01011 %
0(
#1010
1(
0*
#1011
b01100 %
0(
#1012
1(
#1013
b01101 %
0(
#1014
1(
#1015
b01110 %
0(
#1016
1(
#1017
b01111 %
0(
#1018
1(
#1019
b10000 %
0(
#1020
0#
1$
1(
0)
#1021
b00000 %
0(
#1022
0$
0&
b1000000000000000 '
1(
1*
#1023
b00001 %
0(
#1024
b1100000000000000 '
1(
#1025
b00010 %
0(
#1026
b1110000000000000 '
1(
#1027
b00011 %
0(
#1028
b1111000000000000 '
1(
#1029
b00100 %
0(
#1030
b1111100000000000 '
1(
#1031
b00101 %
0(
#1032
1(
0*
#1033
b00110 %
0(
#1034
1(
#1035
b00111 %
0(
#1036
b1111100100000000 '
1(
1*
#1037
b01000 %
0(
#1038
b1111100110000000 '
1(
#1039
b01001 %
0(
#1040
1(
0*
#1041
b01010 %
0(
#1042
b1111100110100000 '
1(
1*
#1043
b01011 %
0(
#1044
b1111100110110000 '
1(
#1045
b01100 %
0(
#1046
1(
0*
#1047
b01101 %
0(
#1048
b1111100110110100 '
1(
1*
#1049
b01110 %
0(
#1050
b1111100110110110 '
1(
#1051
b01111 %
0(
#1052
b1111100110110111 '
1(
#1053
b10000 %
0(
#1054
1#
1$
1(
1)
#1055
b00000 %
0(
#1056
0$
1&
b1000000000000000 '
1(
#1057
b00001 %
0(
#1058
b1100000000000000 '
1(
#1059
b00010 %
0(
#1060
b1110000000000000 '
1(
#1061
b00011 %
0(
#1062
b1111000000000000 '
1(
#1063
b00100 %
0(
#1064
b1111100000000000 '
1(
#1065
b00101 %
0(
#1066
1(
0*
#1067
b00110 %
0(
#1068
1(
#1069
b00111 %
0(
#1070
b1111100100000000 '
1(
1*
#1071
b01000 %
0(
#1072
1(
0*
#1073
b01001 %
0(
#1074
1(
#1075
b01010 %
0(
#1076
b1111100100100000 '
1(
1*
#1077
b01011 %
0(
#1078
1(
0*
#1079
b01100 %
0(
#1080
1(
#1081
b01101 %
0(
#1082
1(
#1083
b01110 %
0(
#1084
1(
#1085
b01111 %
0(
#1086
b1111100100100001 '
1(
1*
#1087
b10000 %
0(
#1088
0#
1$
1(
0)
#1089
b00000 %
0(
#1090
0$
0&
b1000000000000000 '
1(
b1111100100100001 ,
#1091
b00001 %
0(
#1092
b1100000000000000 '
1(
#1093
b00010 %
0(
#1094
b1110000000000000 '
1(
#1095
b00011 %
0(
