avalon/obj_dir/out.vcd
$version Generated by VerilatedVcd $end
$date Thu Jan 23 23:45:06 2020
 $end
$timescale   1ns $end

 $scope module TOP $end
  $var wire 32 Q' AM_ADDR [31:0] $end
  $var wire  3 Y' AM_BURSTCOUNT [2:0] $end
  $var wire  4 q' AM_BYTEENABLE [3:0] $end
  $var wire  1 y' AM_WAITREQUEST $end
  $var wire  1 a' AM_WRITE $end
  $var wire 32 i' AM_WRITEDATA [31:0] $end
  $var wire  1 [( AUD_ADCLRCK $end
  $var wire  1 S( AUD_BCLK $end
  $var wire  3 ;( AVL_ADDR [2:0] $end
  $var wire  1 3( AVL_CS $end
  $var wire  1 #( AVL_READ $end
  $var wire 32 K( AVL_READDATA [31:0] $end
  $var wire  1 +( AVL_WRITE $end
  $var wire 32 C( AVL_WRITEDATA [31:0] $end
  $var wire  1 A' CLK $end
  $var wire  1 c( GPIO_DIN1 $end
  $var wire  1 k( GPIO_DIN2 $end
  $var wire  1 s( GPIO_DIN3 $end
  $var wire  1 {( GPIO_DIN4 $end
  $var wire  1 I' RESET $end
  $var wire 32 5) adc_data [31:0] $end
  $var wire  1 /* change_filter $end
  $var wire 32 ?* codec_stream [31:0] $end
  $var wire 16 }) coef_data [15:0] $end
  $var wire 32 %) fir_left_data [31:0] $end
  $var wire 32 -) fir_right_data [31:0] $end
  $var wire  1 '* load_coef $end
  $var wire  1 7* sample_ready $end
  $var wire 32 =) vol_1 [31:0] $end
  $var wire 32 E) vol_2 [31:0] $end
  $var wire 32 M) vol_3 [31:0] $end
  $var wire 32 U) vol_4 [31:0] $end
  $var wire 32 ]) vol_5 [31:0] $end
  $var wire 32 e) vol_6 [31:0] $end
  $var wire 32 m) vol_7 [31:0] $end
  $var wire 32 u) vol_8 [31:0] $end
  $scope module avalon_microphone_system $end
   $var wire 32 Q' AM_ADDR [31:0] $end
   $var wire  3 Y' AM_BURSTCOUNT [2:0] $end
   $var wire  4 q' AM_BYTEENABLE [3:0] $end
   $var wire  1 y' AM_WAITREQUEST $end
   $var wire  1 a' AM_WRITE $end
   $var wire 32 i' AM_WRITEDATA [31:0] $end
   $var wire  1 [( AUD_ADCLRCK $end
   $var wire  1 S( AUD_BCLK $end
   $var wire  3 ;( AVL_ADDR [2:0] $end
   $var wire  1 3( AVL_CS $end
   $var wire  1 #( AVL_READ $end
   $var wire 32 K( AVL_READDATA [31:0] $end
   $var wire  1 +( AVL_WRITE $end
   $var wire 32 C( AVL_WRITEDATA [31:0] $end
   $var wire  1 A' CLK $end
   $var wire  1 c( GPIO_DIN1 $end
   $var wire  1 k( GPIO_DIN2 $end
   $var wire  1 s( GPIO_DIN3 $end
   $var wire  1 {( GPIO_DIN4 $end
   $var wire  1 I' RESET $end
   $var wire 32 5) adc_data [31:0] $end
   $var wire  1 /* change_filter $end
   $var wire 32 ?* codec_stream [31:0] $end
   $var wire 16 }) coef_data [15:0] $end
   $var wire  3 S counter [2:0] $end
   $var wire  1 }% end_ack $end
   $var wire  1 ; end_latch $end
   $var wire  1 s fin_signal $end
   $var wire 32 %) fir_left_data [31:0] $end
   $var wire 32 -) fir_right_data [31:0] $end
   $var wire  1 u% half_way_ack $end
   $var wire  1 K half_way_latch $end
   $var wire  1 '* load_coef $end
   $var wire 16 e% mic_l [15:0] $end
   $var wire 16 5% mic_l2 [15:0] $end
   $var wire 16 E% mic_l3 [15:0] $end
   $var wire 16 U% mic_l4 [15:0] $end
   $var wire 16 m% mic_r [15:0] $end
   $var wire 16 =% mic_r2 [15:0] $end
   $var wire 16 M% mic_r3 [15:0] $end
   $var wire 16 ]% mic_r4 [15:0] $end
   $var wire  3 =! mic_sel [2:0] $end
   $var wire 32 '& num_samps [31:0] $end
   $var wire 16 7& p_coef_data [15:0] $end
   $var wire 32 _& p_vol_1 [31:0] $end
   $var wire 32 g& p_vol_2 [31:0] $end
   $var wire 32 o& p_vol_3 [31:0] $end
   $var wire 32 w& p_vol_4 [31:0] $end
   $var wire 32 W& p_vol_5 [31:0] $end
   $var wire 32 O& p_vol_6 [31:0] $end
   $var wire 32 G& p_vol_7 [31:0] $end
   $var wire 32 ?& p_vol_8 [31:0] $end
   $var wire 32 K$ ready_data_1 [31:0] $end
   $var wire 32 [$ ready_data_2 [31:0] $end
   $var wire 32 S$ ready_data_3 [31:0] $end
   $var wire 32 c$ ready_data_4 [31:0] $end
   $var wire 32 G* ready_data_choice [31:0] $end
   $var wire  1 #$ ready_read_now $end
   $var wire  1 # restart_sig $end
   $var wire  1 7* sample_ready $end
   $var wire  1 ?" saw_fall $end
   $var wire  1 7" saw_rise $end
   $var wire  1 + start $end
   $var wire 32 +$ start_addr [31:0] $end
   $var wire  1 3 stream_control $end
   $var wire 32 =) vol_1 [31:0] $end
   $var wire 32 E) vol_2 [31:0] $end
   $var wire 32 M) vol_3 [31:0] $end
   $var wire 32 U) vol_4 [31:0] $end
   $var wire 32 ]) vol_5 [31:0] $end
   $var wire 32 e) vol_6 [31:0] $end
   $var wire 32 m) vol_7 [31:0] $end
   $var wire 32 u) vol_8 [31:0] $end
   $scope module detect $end
    $var wire  1 A' clk $end
    $var wire  1 /& cur_test_clk $end
    $var wire  1 ?" falling_edge $end
    $var wire  1 /" found_edge $end
    $var wire  1 C$ last_test_clk $end
    $var wire  1 I' reset $end
    $var wire  1 7" rising_edge $end
    $var wire  1 [( test_clk $end
   $upscope $end
   $scope module dma_yo $end
    $var wire 32 Q' AM_ADDR [31:0] $end
    $var wire  3 Y' AM_BURSTCOUNT [2:0] $end
    $var wire  4 q' AM_BYTEENABLE [3:0] $end
    $var wire  1 y' AM_WAITREQUEST $end
    $var wire  1 a' AM_WRITE $end
    $var wire 32 i' AM_WRITEDATA [31:0] $end
    $var wire  1 A' CLK $end
    $var wire  1 s FINISHED $end
    $var wire 32 O* NUM_MIC_PAIRS [31:0] $end
    $var wire  1 c RESET $end
    $var wire 32 }! counter [31:0] $end
    $var wire  1 E! done $end
    $var wire  1 }% end_ack $end
    $var wire  1 ; end_latch $end
    $var wire  1 s finish_signal $end
    $var wire  1 u% half_way_ack $end
    $var wire  1 K half_way_latch $end
    $var wire  3 =! mic_count [2:0] $end
    $var wire 32 G* mic_data [31:0] $end
    $var wire  3 '" next_state [2:0] $end
    $var wire 32 u! num_samples [31:0] $end
    $var wire 32 '& number_samples [31:0] $end
    $var wire 32 Y# prev_AM_ADDR [31:0] $end
    $var wire  1 i# prev_AM_WRITE $end
    $var wire 32 C prev_counter [31:0] $end
    $var wire  1 a# prev_done $end
    $var wire  1 ;$ prev_finish_signal $end
    $var wire  3 q# prev_mic_count [2:0] $end
    $var wire 32 y# prev_num_samples [31:0] $end
    $var wire 32 k$ prev_starting_address(0) [31:0] $end
    $var wire 32 l$ prev_starting_address(1) [31:0] $end
    $var wire 32 m$ prev_starting_address(2) [31:0] $end
    $var wire 32 n$ prev_starting_address(3) [31:0] $end
    $var wire 32 o$ prev_starting_address(4) [31:0] $end
    $var wire  1 #$ read_ready $end
    $var wire  3 =! select [2:0] $end
    $var wire  1 + start $end
    $var wire 32 +$ start_address [31:0] $end
    $var wire 32 M! starting_address(0) [31:0] $end
    $var wire 32 N! starting_address(1) [31:0] $end
    $var wire 32 O! starting_address(2) [31:0] $end
    $var wire 32 P! starting_address(3) [31:0] $end
    $var wire 32 Q! starting_address(4) [31:0] $end
    $var wire  3 3$ state [2:0] $end
    $scope module unnamedblk1 $end
     $var wire 32 g" i [31:0] $end
    $upscope $end
    $scope module unnamedblk2 $end
     $var wire 32 o" i [31:0] $end
    $upscope $end
    $scope module unnamedblk3 $end
     $var wire 32 W* i [31:0] $end
    $upscope $end
    $scope module unnamedblk4 $end
     $var wire 32 k i [31:0] $end
    $upscope $end
    $scope module unnamedblk5 $end
     $var wire 32 [ i [31:0] $end
    $upscope $end
   $upscope $end
   $scope module m1 $end
    $var wire  5 w" counter [4:0] $end
    $var wire 16 e% data_left [15:0] $end
    $var wire 16 m% data_right [15:0] $end
    $var wire  1 S( sck $end
    $var wire  1 c( sd $end
    $var wire 16 !' shift [0:15] $end
    $var wire 32 _* width [31:0] $end
    $var wire  1 [( ws $end
    $var wire  1 { wsd $end
    $var wire  1 9# wsdd $end
    $var wire  1 G" wsp $end
   $upscope $end
   $scope module m2 $end
    $var wire  5 !# counter [4:0] $end
    $var wire 16 5% data_left [15:0] $end
    $var wire 16 =% data_right [15:0] $end
    $var wire  1 S( sck $end
    $var wire  1 k( sd $end
    $var wire 16 )' shift [0:15] $end
    $var wire 32 _* width [31:0] $end
    $var wire  1 [( ws $end
    $var wire  1 %! wsd $end
    $var wire  1 A# wsdd $end
    $var wire  1 O" wsp $end
   $upscope $end
   $scope module m3 $end
    $var wire  5 )# counter [4:0] $end
    $var wire 16 E% data_left [15:0] $end
    $var wire 16 M% data_right [15:0] $end
    $var wire  1 S( sck $end
    $var wire  1 s( sd $end
    $var wire 16 1' shift [0:15] $end
    $var wire 32 _* width [31:0] $end
    $var wire  1 [( ws $end
    $var wire  1 -! wsd $end
    $var wire  1 I# wsdd $end
    $var wire  1 W" wsp $end
   $upscope $end
   $scope module m4 $end
    $var wire  5 1# counter [4:0] $end
    $var wire 16 U% data_left [15:0] $end
    $var wire 16 ]% data_right [15:0] $end
    $var wire  1 S( sck $end
    $var wire  1 {( sd $end
    $var wire 16 9' shift [0:15] $end
    $var wire 32 _* width [31:0] $end
    $var wire  1 [( ws $end
    $var wire  1 5! wsd $end
    $var wire  1 Q# wsdd $end
    $var wire  1 _" wsp $end
   $upscope $end
  $upscope $end
 $upscope $end
$enddefinitions $end


#9999
0#
0+
13
1;
b00000000000000000000000000000000 C
1K
b000 S
b00000000000000000000000000000000 [
0c
b00000000000000000000000000000101 k
0s
0{
0%!
0-!
05!
b000 =!
0E!
b00000000000000000000000000000000 M!
b00000000000000000000000000000000 N!
b00000000000000000000000000000000 O!
b00000000000000000000000000000000 P!
b00000000000000000000000000000000 Q!
b00000000000000000000000000000000 u!
b00000000000000000000000000000000 }!
b000 '"
0/"
07"
0?"
0G"
0O"
0W"
0_"
b00000000000000000000000000000000 g"
b00000000000000000000000000000101 o"
b00000 w"
b00000 !#
b00000 )#
b00000 1#
09#
0A#
0I#
0Q#
b00000000000000000000000000000000 Y#
0a#
0i#
b000 q#
b00000000000000000000000000000000 y#
0#$
b00000000000000000000000000000000 +$
b000 3$
0;$
0C$
b00000000000000000000000000000000 K$
b00000000000000000000000000000000 S$
b00000000000000000000000000000000 [$
b00000000000000000000000000000000 c$
b00000000000000000000000000000000 k$
b00000000000000000000000000000000 l$
b00000000000000000000000000000000 m$
b00000000000000000000000000000000 n$
b00000000000000000000000000000000 o$
b0000000000000000 5%
b0000000000000000 =%
b0000000000000000 E%
b0000000000000000 M%
b0000000000000000 U%
b0000000000000000 ]%
b0000000000000000 e%
b0000000000000000 m%
0u%
0}%
b00000000000000000000000000000000 '&
0/&
b0000000000000000 7&
b00000000000000000000000000010100 ?&
b00000000000000000000000000010100 G&
b00000000000000000000000000010100 O&
b00000000000000000000000000010100 W&
b00000000000000000000000000010100 _&
b00000000000000000000000000010100 g&
b00000000000000000000000000010100 o&
b00000000000000000000000000010100 w&
b0000000000000000 !'
b0000000000000000 )'
b0000000000000000 1'
b0000000000000000 9'
1A'
0I'
b00000000000000000000000000000000 Q'
b001 Y'
0a'
b00000000000000000000000000000000 i'
b1111 q'
0y'
0#(
0+(
03(
b000 ;(
b00000000000000000000000000000000 C(
b00000000000000000000000000000000 K(
0S(
0[(
1c(
0k(
0s(
0{(
b00000000000000000000000000000000 %)
b00000000000000000000000000000000 -)
b00000000000000000000000000000000 5)
b00000000000000000000000000010100 =)
b00000000000000000000000000010100 E)
b00000000000000000000000000010100 M)
b00000000000000000000000000010100 U)
b00000000000000000000000000010100 ])
b00000000000000000000000000010100 e)
b00000000000000000000000000010100 m)
b00000000000000000000000000010100 u)
b0000000000000000 })
0'*
0/*
07*
b00000000000000000000000000000000 ?*
b00000000000000000000000000000000 G*
b00000000000000000000000000000101 O*
b00000000000000000000000000000101 W*
b00000000000000000000000000010000 _*
#19999
0A'
#29999
1A'
1#(
13(
b001 ;(
#39999
0A'
#49999
1A'
0#(
03(
#59999
0A'
#69999
1A'
#79999
0A'
#89999
1A'
1#(
13(
#99999
0A'
#109999
1A'
0#(
03(
#119999
0A'
#129999
1A'
#139999
0A'
#149999
1A'
1#(
13(
#159999
0A'
#162759
b1000000000000000 !'
0#(
03(
1S(
#169999
1A'
#179999
0A'
#189999
1A'
#199999
0A'
#209999
1A'
1#(
13(
#219999
0A'
#229999
1A'
0#(
03(
#239999
0A'
#249999
1A'
#259999
0A'
#269999
1A'
1#(
13(
#279999
0A'
#289999
1A'
0#(
03(
#299999
0A'
#309999
1A'
#319999
0A'
#325519
b00001 w"
b00001 !#
b00001 )#
b00001 1#
1#(
13(
0S(
#329999
1A'
#339999
0A'
#349999
1A'
0#(
03(
#359999
0A'
#369999
1A'
#379999
0A'
#389999
1A'
1#(
13(
#399999
0A'
#409999
1A'
0#(
03(
#419999
0A'
#429999
1A'
#439999
0A'
#449999
1A'
1#(
13(
#459999
0A'
#469999
1A'
0#(
03(
#479999
0A'
#488279
b1100000000000000 !'
1S(
#489999
1A'
#499999
0A'
#509999
1A'
1#(
13(
#519999
0A'
#529999
1A'
0#(
03(
#539999
0A'
#549999
1A'
#559999
0A'
#569999
1A'
1#(
13(
#579999
0A'
#589999
1A'
0#(
03(
#599999
0A'
#609999
1A'
#619999
0A'
#629999
1A'
1#(
13(
#639999
0A'
#649999
1A'
0#(
03(
#651039
b00010 w"
b00010 !#
b00010 )#
b00010 1#
0S(
#659999
0A'
#669999
1A'
#679999
0A'
#689999
1A'
1#(
13(
#699999
0A'
#709999
1A'
0#(
03(
#719999
0A'
#729999
1A'
#739999
0A'
#749999
1A'
1#(
13(
#759999
0A'
#769999
1A'
0#(
03(
#779999
0A'
#789999
1A'
#799999
0A'
#809999
1A'
1#(
13(
#813799
b1110000000000000 !'
1S(
#819999
0A'
#829999
1A'
0#(
03(
#839999
0A'
#849999
1A'
#859999
0A'
#869999
1A'
1#(
13(
#879999
0A'
#889999
1A'
0#(
03(
#899999
0A'
#909999
1A'
#919999
0A'
#929999
1A'
1#(
13(
#939999
0A'
#949999
1A'
0#(
03(
#959999
0A'
#969999
1A'
#976559
b00011 w"
b00011 !#
b00011 )#
b00011 1#
0S(
#979999
0A'
#989999
1A'
1#(
13(
#999999
0A'
#1009999
1A'
0#(
03(
#1019999
0A'
#1029999
1A'
#1039999
0A'
#1049999
1A'
1#(
13(
#1059999
0A'
#1069999
1A'
0#(
03(
#1079999
0A'
#1089999
1A'
#1099999
0A'
#1109999
1A'
1#(
13(
#1119999
0A'
#1129999
1A'
0#(
03(
#1139319
b1111000000000000 !'
1S(
#1139999
0A'
#1149999
1A'
#1159999
0A'
#1169999
1A'
1#(
13(
#1179999
0A'
#1189999
1A'
0#(
03(
#1199999
0A'
#1209999
1A'
#1219999
0A'
#1229999
1A'
1#(
13(
#1239999
0A'
#1249999
1A'
0#(
03(
#1259999
0A'
#1269999
1A'
#1279999
0A'
#1289999
1A'
1#(
13(
#1299999
0A'
#1302079
b00100 w"
b00100 !#
b00100 )#
b00100 1#
0#(
03(
0S(
#1309999
1A'
#1319999
0A'
#1329999
1A'
#1339999
0A'
#1349999
1A'
1#(
13(
#1359999
0A'
#1369999
1A'
0#(
03(
#1379999
0A'
#1389999
1A'
#1399999
0A'
#1409999
1A'
1#(
13(
#1419999
0A'
#1429999
1A'
0#(
03(
#1439999
0A'
#1449999
1A'
#1459999
0A'
#1464839
b1111100000000000 !'
1#(
13(
1S(
#1469999
1A'
#1479999
0A'
#1489999
1A'
0#(
03(
#1499999
0A'
#1509999
1A'
#1519999
0A'
#1529999
1A'
1#(
13(
#1539999
0A'
#1549999
1A'
0#(
03(
#1559999
0A'
#1569999
1A'
#1579999
0A'
#1589999
1A'
1#(
13(
#1599999
0A'
#1609999
1A'
0#(
03(
#1619999
0A'
#1627599
b00101 w"
b00101 !#
b00101 )#
b00101 1#
0S(
#1629999
1A'
0c(
#1639999
0A'
#1649999
1A'
1#(
13(
#1659999
0A'
#1669999
1A'
0#(
03(
#1679999
0A'
#1689999
1A'
#1699999
0A'
#1709999
1A'
1#(
13(
#1719999
0A'
#1729999
1A'
0#(
03(
#1739999
0A'
#1749999
1A'
#1759999
0A'
#1769999
1A'
1#(
13(
#1779999
0A'
#1789999
1A'
0#(
03(
#1790359
1S(
#1799999
0A'
#1809999
1A'
#1819999
0A'
#1829999
1A'
1#(
13(
#1839999
0A'
#1849999
1A'
0#(
03(
#1859999
0A'
#1869999
1A'
#1879999
0A'
#1889999
1A'
1#(
13(
#1899999
0A'
#1909999
1A'
0#(
03(
#1919999
0A'
#1929999
1A'
#1939999
0A'
#1949999
1A'
1#(
13(
#1953119
b00110 w"
b00110 !#
b00110 )#
b00110 1#
0S(
#1959999
0A'
#1969999
1A'
0#(
03(
#1979999
0A'
#1989999
1A'
#1999999
0A'
#2009999
1A'
1#(
13(
#2019999
0A'
#2029999
1A'
0#(
03(
#2039999
0A'
#2049999
1A'
#2059999
0A'
#2069999
1A'
1#(
13(
#2079999
0A'
#2089999
1A'
0#(
03(
#2099999
0A'
#2109999
1A'
#2115879
1S(
#2119999
0A'
#2129999
1A'
1#(
13(
#2139999
0A'
#2149999
1A'
0#(
03(
#2159999
0A'
#2169999
1A'
#2179999
0A'
#2189999
1A'
1#(
13(
#2199999
0A'
#2209999
1A'
0#(
03(
#2219999
0A'
#2229999
1A'
#2239999
0A'
#2249999
1A'
1#(
13(
#2259999
0A'
#2269999
1A'
0#(
03(
#2278639
b00111 w"
b00111 !#
b00111 )#
b00111 1#
0S(
#2279999
0A'
1c(
#2289999
1A'
#2299999
0A'
#2309999
1A'
1#(
13(
#2319999
0A'
#2329999
1A'
0#(
03(
#2339999
0A'
#2349999
1A'
#2359999
0A'
#2369999
1A'
1#(
13(
#2379999
0A'
#2389999
1A'
0#(
03(
#2399999
0A'
#2409999
1A'
#2419999
0A'
#2429999
1A'
1#(
13(
#2439999
0A'
#2441399
b1111100100000000 !'
0#(
03(
1S(
#2449999
1A'
#2459999
0A'
#2469999
1A'
#2479999
0A'
#2489999
1A'
1#(
13(
#2499999
0A'
#2509999
1A'
0#(
03(
#2519999
0A'
#2529999
1A'
#2539999
0A'
#2549999
1A'
1#(
13(
#2559999
0A'
#2569999
1A'
0#(
03(
#2579999
0A'
#2589999
1A'
#2599999
0A'
#2604159
b01000 w"
b01000 !#
b01000 )#
b01000 1#
1#(
13(
0S(
#2609999
1A'
#2619999
0A'
#2629999
1A'
0#(
03(
#2639999
0A'
#2649999
1A'
#2659999
0A'
#2669999
1A'
1#(
13(
#2679999
0A'
#2689999
1A'
0#(
03(
#2699999
0A'
#2709999
1A'
#2719999
0A'
#2729999
1A'
1#(
13(
#2739999
0A'
#2749999
1A'
0#(
03(
#2759999
0A'
#2766919
b1111100110000000 !'
1S(
#2769999
1A'
#2779999
0A'
#2789999
1A'
1#(
13(
#2799999
0A'
#2809999
1A'
0#(
03(
#2819999
0A'
#2829999
1A'
#2839999
0A'
#2849999
1A'
1#(
13(
#2859999
0A'
#2869999
1A'
0#(
03(
#2879999
0A'
#2889999
1A'
#2899999
0A'
#2909999
1A'
1#(
13(
#2919999
0A'
#2929679
b01001 w"
b01001 !#
b01001 )#
b01001 1#
0#(
03(
0S(
#2929999
1A'
0c(
#2939999
0A'
#2949999
1A'
#2959999
0A'
#2969999
1A'
1#(
13(
#2979999
0A'
#2989999
1A'
0#(
03(
#2999999
0A'
#3009999
1A'
#3019999
0A'
#3029999
1A'
1#(
13(
#3039999
0A'
#3049999
1A'
0#(
03(
#3059999
0A'
#3069999
1A'
#3079999
0A'
#3089999
1A'
1#(
13(
#3092439
1S(
#3099999
0A'
#3109999
1A'
0#(
03(
#3119999
0A'
#3129999
1A'
#3139999
0A'
#3149999
1A'
1#(
13(
#3159999
0A'
#3169999
1A'
0#(
03(
#3179999
0A'
#3189999
1A'
#3199999
0A'
#3209999
1A'
1#(
13(
#3219999
0A'
#3229999
1A'
0#(
03(
#3239999
0A'
#3249999
1A'
#3255199
b01010 w"
b01010 !#
b01010 )#
b01010 1#
0S(
#3259999
0A'
1c(
#3269999
1A'
1#(
13(
#3279999
0A'
#3289999
1A'
0#(
03(
#3299999
0A'
#3309999
1A'
#3319999
0A'
#3329999
1A'
1#(
13(
#3339999
0A'
#3349999
1A'
0#(
03(
#3359999
0A'
#3369999
1A'
#3379999
0A'
#3389999
1A'
1#(
13(
#3399999
0A'
#3409999
1A'
0#(
03(
#3417959
b1111100110100000 !'
1S(
#3419999
0A'
#3429999
1A'
#3439999
0A'
#3449999
1A'
1#(
13(
#3459999
0A'
#3469999
1A'
0#(
03(
#3479999
0A'
#3489999
1A'
#3499999
0A'
#3509999
1A'
1#(
13(
#3519999
0A'
#3529999
1A'
0#(
03(
#3539999
0A'
#3549999
1A'
#3559999
0A'
#3569999
1A'
1#(
13(
#3579999
0A'
#3580719
b01011 w"
b01011 !#
b01011 )#
b01011 1#
0#(
03(
0S(
#3589999
1A'
#3599999
0A'
#3609999
1A'
#3619999
0A'
#3629999
1A'
1#(
13(
#3639999
0A'
#3649999
1A'
0#(
03(
#3659999
0A'
#3669999
1A'
#3679999
0A'
#3689999
1A'
1#(
13(
#3699999
0A'
#3709999
1A'
0#(
03(
#3719999
0A'
#3729999
1A'
#3739999
0A'
#3743479
b1111100110110000 !'
1#(
13(
1S(
#3749999
1A'
#3759999
0A'
#3769999
1A'
0#(
03(
#3779999
0A'
#3789999
1A'
#3799999
0A'
#3809999
1A'
1#(
13(
#3819999
0A'
#3829999
1A'
0#(
03(
#3839999
0A'
#3849999
1A'
#3859999
0A'
#3869999
1A'
1#(
13(
#3879999
0A'
#3889999
1A'
0#(
03(
#3899999
0A'
#3906239
b01100 w"
b01100 !#
b01100 )#
b01100 1#
0S(
#3909999
1A'
0c(
#3919999
0A'
#3929999
1A'
1#(
13(
#3939999
0A'
#3949999
1A'
0#(
03(
#3959999
0A'
#3969999
1A'
#3979999
0A'
#3989999
1A'
1#(
13(
#3999999
0A'
#4009999
1A'
0#(
03(
#4019999
0A'
#4029999
1A'
#4039999
0A'
#4049999
1A'
1#(
13(
#4059999
0A'
#4068999
0#(
03(
1S(
#4069999
1A'
#4079999
0A'
#4089999
1A'
#4099999
0A'
#4109999
1A'
1#(
13(
#4119999
0A'
#4129999
1A'
0#(
03(
#4139999
0A'
#4149999
1A'
#4159999
0A'
#4169999
1A'
1#(
13(
#4179999
0A'
#4189999
1A'
0#(
03(
#4199999
0A'
#4209999
1A'
#4219999
0A'
#4229999
1A'
1#(
13(
#4231759
b01101 w"
b01101 !#
b01101 )#
b01101 1#
0S(
#4239999
0A'
1c(
#4249999
1A'
0#(
03(
#4259999
0A'
#4269999
1A'
#4279999
0A'
#4289999
1A'
1#(
13(
#4299999
0A'
#4309999
1A'
0#(
03(
#4319999
0A'
#4329999
1A'
#4339999
0A'
#4349999
1A'
1#(
13(
#4359999
0A'
#4369999
1A'
0#(
03(
#4379999
0A'
#4389999
1A'
#4394519
b1111100110110100 !'
1S(
#4399999
0A'
#4409999
1A'
1#(
13(
#4419999
0A'
#4429999
1A'
0#(
03(
#4439999
0A'
#4449999
1A'
#4459999
0A'
#4469999
1A'
1#(
13(
#4479999
0A'
#4489999
1A'
0#(
03(
#4499999
0A'
#4509999
1A'
#4519999
0A'
#4529999
1A'
1#(
13(
#4539999
0A'
#4549999
1A'
0#(
03(
#4557279
b01110 w"
b01110 !#
b01110 )#
b01110 1#
0S(
#4559999
0A'
0c(
#4569999
1A'
#4579999
0A'
#4589999
1A'
1#(
13(
#4599999
0A'
#4609999
1A'
0#(
03(
#4619999
0A'
#4629999
1A'
#4639999
0A'
#4649999
1A'
1#(
13(
#4659999
0A'
#4669999
1A'
0#(
03(
#4679999
0A'
#4689999
1A'
#4699999
0A'
#4709999
1A'
1#(
13(
#4719999
0A'
#4720039
0#(
03(
1S(
#4729999
1A'
#4739999
0A'
#4749999
1A'
#4759999
0A'
#4769999
1A'
1#(
13(
#4779999
0A'
#4789999
1A'
0#(
03(
#4799999
0A'
#4809999
1A'
#4819999
0A'
#4829999
1A'
1#(
13(
#4839999
0A'
#4849999
1A'
0#(
03(
#4859999
0A'
#4869999
1A'
#4879999
0A'
#4882799
b01111 w"
b01111 !#
b01111 )#
b01111 1#
1#(
13(
0S(
#4889999
1/"
17"
1/&
1A'
1[(
1c(
#4899999
0A'
#4909999
b001 S
0/"
07"
1C$
1A'
0#(
03(
#4919999
0A'
#4929999
1A'
#4939999
0A'
#4949999
1A'
1#(
13(
#4959999
0A'
#4969999
1A'
0#(
03(
#4979999
0A'
#4989999
1A'
#4999999
0A'
#5009999
1A'
1#(
13(
#5019999
0A'
#5029999
1A'
0#(
03(
#5039999
0A'
#5045559
1{
1%!
1-!
15!
1G"
1O"
1W"
1_"
b1111100110110101 !'
1S(
#5049999
1A'
#5059999
0A'
#5069999
1A'
1#(
13(
#5079999
0A'
#5089999
1A'
0#(
03(
#5099999
0A'
#5109999
1A'
#5119999
0A'
#5129999
1A'
1#(
13(
#5139999
0A'
#5149999
1A'
0#(
03(
#5159999
0A'
#5169999
1A'
#5179999
0A'
#5189999
1A'
1#(
13(
#5199999
0A'
#5208319
b00000 w"
b00000 !#
b00000 )#
b00000 1#
0#(
03(
0S(
#5209999
1A'
#5219999
0A'
#5229999
1A'
#5239999
0A'
#5249999
1A'
1#(
13(
#5259999
0A'
#5269999
1A'
0#(
03(
#5279999
0A'
#5289999
1A'
#5299999
0A'
#5309999
1A'
1#(
13(
#5319999
0A'
#5329999
1A'
0#(
03(
#5339999
0A'
#5349999
1A'
#5359999
0A'
#5369999
1A'
1#(
13(
#5371079
0G"
0O"
0W"
0_"
19#
1A#
1I#
1Q#
b1111100110110101 e%
b1000000000000000 !'
b11111001101101010000000000000000 K(
1S(
#5379999
0A'
#5389999
1A'
0#(
03(
b00000000000000000000000000000000 K(
#5399999
0A'
#5409999
1A'
#5419999
0A'
#5429999
1A'
1#(
13(
b11111001101101010000000000000000 K(
#5439999
0A'
#5449999
1A'
0#(
03(
b00000000000000000000000000000000 K(
#5459999
0A'
#5469999
1A'
#5479999
0A'
#5489999
1A'
1#(
13(
b11111001101101010000000000000000 K(
#5499999
0A'
#5509999
1A'
0#(
03(
b00000000000000000000000000000000 K(
#5519999
0A'
#5529999
1A'
#5533839
b00001 w"
b00001 !#
b00001 )#
b00001 1#
0S(
#5539999
0A'
#5549999
1A'
1#(
13(
b11111001101101010000000000000000 K(
#5559999
0A'
#5569999
1A'
0#(
03(
b00000000000000000000000000000000 K(
#5579999
0A'
#5589999
1A'
#5599999
0A'
#5609999
1A'
1#(
13(
b11111001101101010000000000000000 K(
#5619999
0A'
#5629999
1A'
0#(
03(
b00000000000000000000000000000000 K(
#5639999
0A'
#5649999
1A'
#5659999
0A'
#5669999
1A'
1#(
13(
b11111001101101010000000000000000 K(
#5679999
0A'
#5689999
1A'
0#(
03(
b00000000000000000000000000000000 K(
#5696599
b1100000000000000 !'
1S(
#5699999
0A'
#5709999
1A'
#5719999
0A'
#5729999
1A'
1#(
13(
b11111001101101010000000000000000 K(
#5739999
0A'
#5749999
1A'
0#(
03(
b00000000000000000000000000000000 K(
#5759999
0A'
#5769999
1A'
#5779999
0A'
#5789999
1A'
1#(
13(
b11111001101101010000000000000000 K(
#5799999
0A'
#5809999
1A'
0#(
03(
b00000000000000000000000000000000 K(
#5819999
0A'
#5829999
1A'
#5839999
0A'
#5849999
1A'
1#(
13(
b11111001101101010000000000000000 K(
#5859359
b00010 w"
b00010 !#
b00010 )#
b00010 1#
0S(
#5859999
0A'
#5869999
1A'
0#(
03(
b00000000000000000000000000000000 K(
#5879999
0A'
#5889999
1A'
#5899999
0A'
#5909999
1A'
1#(
13(
b11111001101101010000000000000000 K(
#5919999
0A'
#5929999
1A'
0#(
03(
b00000000000000000000000000000000 K(
#5939999
0A'
#5949999
1A'
#5959999
0A'
#5969999
1A'
1#(
13(
b11111001101101010000000000000000 K(
#5979999
0A'
#5989999
1A'
0#(
03(
b00000000000000000000000000000000 K(
#5999999
0A'
#6009999
1A'
#6019999
0A'
#6022119
b1110000000000000 !'
1#(
13(
b11111001101101010000000000000000 K(
1S(
#6029999
1A'
#6039999
0A'
#6049999
1A'
0#(
03(
b00000000000000000000000000000000 K(
#6059999
0A'
#6069999
1A'
#6079999
0A'
#6089999
1A'
1#(
13(
b11111001101101010000000000000000 K(
#6099999
0A'
#6109999
1A'
0#(
03(
b00000000000000000000000000000000 K(
#6119999
0A'
#6129999
1A'
#6139999
0A'
#6149999
1A'
1#(
13(
b11111001101101010000000000000000 K(
#6159999
0A'
#6169999
1A'
0#(
03(
b00000000000000000000000000000000 K(
#6179999
0A'
#6184879
b00011 w"
b00011 !#
b00011 )#
b00011 1#
0S(
#6189999
1A'
#6199999
0A'
#6209999
1A'
1#(
13(
b11111001101101010000000000000000 K(
#6219999
0A'
#6229999
1A'
0#(
03(
b00000000000000000000000000000000 K(
#6239999
0A'
#6249999
1A'
#6259999
0A'
#6269999
1A'
1#(
13(
b11111001101101010000000000000000 K(
#6279999
0A'
#6289999
1A'
0#(
03(
b00000000000000000000000000000000 K(
#6299999
0A'
#6309999
1A'
#6319999
0A'
#6329999
1A'
1#(
13(
b11111001101101010000000000000000 K(
#6339999
0A'
#6347639
b1111000000000000 !'
0#(
03(
b00000000000000000000000000000000 K(
1S(
#6349999
1A'
#6359999
0A'
#6369999
1A'
#6379999
0A'
#6389999
1A'
1#(
13(
b11111001101101010000000000000000 K(
#6399999
0A'
